<?xml version="1.0" encoding="utf-8"?>
<!-- Generator: Adobe Illustrator 18.1.1, SVG Export Plug-In . SVG Version: 6.00 Build 0)  -->
<svg version="1.1" id="Layer_1" xmlns="http://www.w3.org/2000/svg" xmlns:xlink="http://www.w3.org/1999/xlink" x="0px" y="0px"
	 viewBox="0 0 400 115.2" enable-background="new 0 0 400 115.2" xml:space="preserve">
<polygon fill="#026853" points="90.7,43.3 90.7,1.8 103.2,1.8 110.8,30.1 118.2,1.8 130.8,1.8 130.8,43.3 123,43.3 123,10.6 
	114.8,43.3 106.7,43.3 98.5,10.6 98.5,43.3 "/>
<polygon fill="#026853" points="138.6,43.3 138.6,1.8 169.5,1.8 169.5,8.8 147,8.8 147,18 167.9,18 167.9,25 147,25 147,36.3 
	170.2,36.3 170.2,43.3 "/>
<path fill="#026853" d="M176.6,1.8h15.3c3.5,0,6.1,0.3,7.9,0.8c2.4,0.7,4.5,2,6.3,3.8c1.7,1.8,3.1,4.1,4,6.7
	c0.9,2.7,1.4,5.9,1.4,9.8c0,3.4-0.4,6.4-1.3,8.8c-1,3-2.5,5.5-4.5,7.3c-1.5,1.4-3.4,2.5-5.9,3.3c-1.9,0.6-4.3,0.9-7.4,0.9h-15.8V1.8
	z M185,8.8v27.5h6.3c2.3,0,4-0.1,5.1-0.4c1.4-0.3,2.5-0.9,3.4-1.7c0.9-0.8,1.6-2.1,2.2-4c0.6-1.9,0.8-4.4,0.8-7.6
	c0-3.2-0.3-5.7-0.8-7.4c-0.6-1.7-1.4-3.1-2.4-4c-1-1-2.3-1.6-3.9-2c-1.2-0.3-3.5-0.4-6.9-0.4H185z"/>
<rect x="217.6" y="1.8" fill="#026853" width="8.4" height="41.6"/>
<polygon fill="#026853" points="242.5,43.3 242.5,8.8 230.1,8.8 230.1,1.8 263.2,1.8 263.2,8.8 250.9,8.8 250.9,43.3 "/>
<polygon fill="#026853" points="267.5,43.3 267.5,1.8 298.3,1.8 298.3,8.8 275.9,8.8 275.9,18 296.8,18 296.8,25 275.9,25 
	275.9,36.3 299.1,36.3 299.1,43.3 "/>
<path fill="#026853" d="M331.1,28l8.1,2.6c-1.2,4.5-3.3,7.9-6.2,10.1c-2.9,2.2-6.6,3.3-11,3.3c-5.5,0-10.1-1.9-13.6-5.7
	c-3.6-3.8-5.3-8.9-5.3-15.5c0-6.9,1.8-12.3,5.4-16.1c3.6-3.8,8.3-5.7,14.1-5.7c5.1,0,9.2,1.5,12.4,4.5c1.9,1.8,3.3,4.3,4.3,7.7
	l-8.3,2c-0.5-2.2-1.5-3.9-3.1-5.1c-1.6-1.2-3.5-1.9-5.7-1.9c-3.1,0-5.6,1.1-7.5,3.3c-1.9,2.2-2.9,5.8-2.9,10.7c0,5.3,0.9,9,2.8,11.2
	c1.9,2.2,4.3,3.3,7.4,3.3c2.2,0,4.1-0.7,5.8-2.1C329.3,33.3,330.4,31.1,331.1,28"/>
<polygon fill="#026853" points="345,43.3 345,1.8 353.4,1.8 353.4,18.1 369.8,18.1 369.8,1.8 378.2,1.8 378.2,43.3 369.8,43.3 
	369.8,25.2 353.4,25.2 353.4,43.3 "/>
<path fill="#34444C" d="M90.4,55.8c1.1-0.2,2.7-0.4,4.2-0.4c2.3,0,3.9,0.4,4.9,1.4c0.9,0.8,1.3,1.9,1.3,3.2c0,2.2-1.4,3.7-3.2,4.3
	v0.1c1.3,0.5,2.1,1.7,2.5,3.4c0.6,2.4,1,4,1.3,4.7h-2.3c-0.3-0.5-0.7-1.9-1.1-4.1c-0.5-2.3-1.4-3.2-3.4-3.3h-2.1v7.4h-2.2V55.8z
	 M92.6,63.6h2.2c2.3,0,3.8-1.3,3.8-3.2c0-2.2-1.6-3.1-3.9-3.2c-1.1,0-1.8,0.1-2.2,0.2V63.6z"/>
<path fill="#34444C" d="M104.8,66.9c0,3,2,4.2,4.2,4.2c1.6,0,2.5-0.3,3.4-0.6l0.4,1.6c-0.8,0.4-2.1,0.8-4.1,0.8c-3.8,0-6-2.5-6-6.1
	c0-3.7,2.2-6.6,5.7-6.6c4,0,5,3.5,5,5.7c0,0.5-0.1,0.8-0.1,1H104.8z M111.3,65.3c0-1.4-0.6-3.6-3.1-3.6c-2.2,0-3.2,2.1-3.4,3.6
	H111.3z"/>
<path fill="#34444C" d="M118.2,57c0,0.8-0.5,1.4-1.4,1.4c-0.8,0-1.3-0.6-1.3-1.4c0-0.8,0.6-1.4,1.4-1.4
	C117.7,55.6,118.2,56.2,118.2,57 M115.8,60.4h2.2v12.2h-2.2V60.4z"/>
<path fill="#34444C" d="M121.2,63.7c0-1.3,0-2.3-0.1-3.3h1.9l0.1,2h0.1c0.7-1.2,1.8-2.2,3.8-2.2c1.7,0,2.9,1,3.5,2.4h0.1
	c0.4-0.7,0.9-1.2,1.4-1.6c0.7-0.6,1.5-0.9,2.7-0.9c1.6,0,4,1.1,4,5.3v7.2h-2.2v-6.9c0-2.3-0.9-3.8-2.6-3.8c-1.3,0-2.2,0.9-2.6,2
	c-0.1,0.3-0.2,0.7-0.2,1.1v7.5h-2.2v-7.3c0-1.9-0.9-3.4-2.5-3.4c-1.4,0-2.4,1.1-2.7,2.2c-0.1,0.3-0.2,0.7-0.2,1.1v7.4h-2.2V63.7z"/>
<path fill="#34444C" d="M148.5,72.6l-0.2-1.5h-0.1c-0.7,1-2,1.8-3.7,1.8c-2.5,0-3.7-1.7-3.7-3.5c0-2.9,2.6-4.6,7.3-4.5v-0.3
	c0-1-0.3-2.8-2.8-2.8c-1.1,0-2.3,0.4-3.2,0.9l-0.5-1.5c1-0.7,2.5-1.1,4-1.1c3.7,0,4.6,2.5,4.6,5v4.6c0,1.1,0.1,2.1,0.2,2.9H148.5z
	 M148.2,66.4c-2.4-0.1-5.2,0.4-5.2,2.7c0,1.4,1,2.1,2.1,2.1c1.6,0,2.6-1,2.9-2c0.1-0.2,0.1-0.5,0.1-0.7V66.4z"/>
<path fill="#34444C" d="M164,60.4c0,0.9-0.1,1.9-0.1,3.4v7.1c0,2.8-0.6,4.5-1.7,5.6c-1.2,1.1-2.9,1.5-4.4,1.5c-1.5,0-3.1-0.4-4.1-1
	l0.6-1.7c0.8,0.5,2.1,1,3.6,1c2.3,0,3.9-1.2,3.9-4.3v-1.4h-0.1c-0.7,1.1-2,2-3.9,2c-3,0-5.2-2.6-5.2-5.9c0-4.1,2.7-6.5,5.5-6.5
	c2.1,0,3.3,1.1,3.8,2.1h0l0.1-1.8H164z M161.7,65.2c0-0.4,0-0.7-0.1-1c-0.4-1.3-1.5-2.3-3.1-2.3c-2.1,0-3.6,1.8-3.6,4.6
	c0,2.4,1.2,4.4,3.6,4.4c1.4,0,2.6-0.9,3.1-2.3c0.1-0.4,0.2-0.8,0.2-1.2V65.2z"/>
<path fill="#34444C" d="M169.5,57c0,0.8-0.5,1.4-1.4,1.4c-0.8,0-1.3-0.6-1.3-1.4c0-0.8,0.6-1.4,1.4-1.4
	C169,55.6,169.5,56.2,169.5,57 M167.1,60.4h2.2v12.2h-2.2V60.4z"/>
<path fill="#34444C" d="M172.5,63.7c0-1.3,0-2.3-0.1-3.3h2l0.1,2h0.1c0.6-1.2,2-2.3,4-2.3c1.7,0,4.3,1,4.3,5.2v7.3h-2.2v-7
	c0-2-0.7-3.6-2.8-3.6c-1.5,0-2.6,1-3,2.3c-0.1,0.3-0.2,0.7-0.2,1v7.3h-2.2V63.7z"/>
<path fill="#34444C" d="M188.4,57c0,0.8-0.5,1.4-1.4,1.4c-0.8,0-1.3-0.6-1.3-1.4c0-0.8,0.6-1.4,1.4-1.4
	C187.9,55.6,188.4,56.2,188.4,57 M186,60.4h2.2v12.2H186V60.4z"/>
<path fill="#34444C" d="M191.3,63.7c0-1.3,0-2.3-0.1-3.3h2l0.1,2h0.1c0.6-1.2,2-2.3,4-2.3c1.7,0,4.3,1,4.3,5.2v7.3h-2.2v-7
	c0-2-0.7-3.6-2.8-3.6c-1.5,0-2.6,1-3,2.3c-0.1,0.3-0.2,0.7-0.2,1v7.3h-2.2V63.7z"/>
<path fill="#34444C" d="M215.5,60.4c-0.1,0.9-0.1,1.9-0.1,3.4v7.1c0,2.8-0.6,4.5-1.7,5.6c-1.2,1.1-2.9,1.5-4.4,1.5
	c-1.5,0-3.1-0.4-4.1-1l0.6-1.7c0.8,0.5,2.1,1,3.6,1c2.3,0,3.9-1.2,3.9-4.3v-1.4h0c-0.7,1.1-2,2-3.9,2c-3,0-5.2-2.6-5.2-5.9
	c0-4.1,2.7-6.5,5.5-6.5c2.1,0,3.3,1.1,3.8,2.1h0.1l0.1-1.8H215.5z M213.2,65.2c0-0.4,0-0.7-0.1-1c-0.4-1.3-1.5-2.3-3.1-2.3
	c-2.1,0-3.6,1.8-3.6,4.6c0,2.4,1.2,4.4,3.6,4.4c1.4,0,2.6-0.9,3.1-2.3c0.1-0.4,0.2-0.8,0.2-1.2V65.2z"/>
<path fill="#34444C" d="M224.1,54.7h2.2v7.6h0.1c0.4-0.6,0.9-1.2,1.6-1.6c0.7-0.4,1.4-0.6,2.3-0.6c1.6,0,4.3,1,4.3,5.2v7.3h-2.2v-7
	c0-2-0.7-3.6-2.8-3.6c-1.4,0-2.6,1-3,2.2c-0.1,0.3-0.2,0.6-0.2,1.1v7.4h-2.2V54.7z"/>
<path fill="#34444C" d="M239,66.9c0.1,3,2,4.2,4.2,4.2c1.6,0,2.5-0.3,3.4-0.6l0.4,1.6c-0.8,0.4-2.1,0.8-4.1,0.8c-3.8,0-6-2.5-6-6.1
	c0-3.7,2.2-6.6,5.7-6.6c4,0,5,3.5,5,5.7c0,0.5-0.1,0.8-0.1,1H239z M245.5,65.3c0-1.4-0.6-3.6-3.1-3.6c-2.2,0-3.2,2.1-3.4,3.6H245.5z
	"/>
<path fill="#34444C" d="M256.7,72.6l-0.2-1.5h-0.1c-0.7,1-2,1.8-3.7,1.8c-2.5,0-3.7-1.7-3.7-3.5c0-2.9,2.6-4.6,7.3-4.5v-0.3
	c0-1-0.3-2.8-2.8-2.8c-1.1,0-2.3,0.4-3.2,0.9l-0.5-1.5c1-0.7,2.5-1.1,4-1.1c3.7,0,4.6,2.5,4.6,5v4.6c0,1.1,0.1,2.1,0.2,2.9H256.7z
	 M256.4,66.4c-2.4-0.1-5.2,0.4-5.2,2.7c0,1.4,1,2.1,2.1,2.1c1.6,0,2.6-1,2.9-2c0.1-0.2,0.1-0.5,0.1-0.7V66.4z"/>
<rect x="261.6" y="54.7" fill="#34444C" width="2.2" height="17.9"/>
<path fill="#34444C" d="M269.8,56.9v3.5h3.2v1.7h-3.2v6.6c0,1.5,0.4,2.4,1.7,2.4c0.6,0,1-0.1,1.3-0.2l0.1,1.7
	c-0.4,0.2-1.1,0.3-2,0.3c-1,0-1.9-0.3-2.4-0.9c-0.6-0.7-0.9-1.7-0.9-3.2v-6.7h-1.9v-1.7h1.9v-2.9L269.8,56.9z"/>
<path fill="#34444C" d="M275,54.7h2.2v7.6h0.1c0.4-0.6,0.9-1.2,1.6-1.6c0.7-0.4,1.4-0.6,2.3-0.6c1.6,0,4.3,1,4.3,5.2v7.3h-2.2v-7
	c0-2-0.7-3.6-2.8-3.6c-1.4,0-2.6,1-3,2.2c-0.1,0.3-0.2,0.6-0.2,1.1v7.4H275V54.7z"/>
<path fill="#34444C" d="M297.3,72.1c-0.6,0.3-1.9,0.7-3.5,0.7c-3.7,0-6.1-2.5-6.1-6.2c0-3.8,2.6-6.5,6.6-6.5c1.3,0,2.5,0.3,3.1,0.6
	l-0.5,1.7c-0.5-0.3-1.4-0.6-2.6-0.6c-2.8,0-4.3,2.1-4.3,4.6c0,2.8,1.8,4.6,4.2,4.6c1.3,0,2.1-0.3,2.7-0.6L297.3,72.1z"/>
<path fill="#34444C" d="M306.3,72.6l-0.2-1.5h-0.1c-0.7,1-2,1.8-3.7,1.8c-2.5,0-3.7-1.7-3.7-3.5c0-2.9,2.6-4.6,7.3-4.5v-0.3
	c0-1-0.3-2.8-2.8-2.8c-1.1,0-2.3,0.4-3.2,0.9l-0.5-1.5c1-0.7,2.5-1.1,4-1.1c3.7,0,4.6,2.5,4.6,5v4.6c0,1.1,0.1,2.1,0.2,2.9H306.3z
	 M306,66.4c-2.4-0.1-5.2,0.4-5.2,2.7c0,1.4,1,2.1,2.1,2.1c1.6,0,2.6-1,2.9-2c0.1-0.2,0.1-0.5,0.1-0.7V66.4z"/>
<path fill="#34444C" d="M311.2,64.2c0-1.4,0-2.7-0.1-3.8h1.9l0.1,2.4h0.1c0.6-1.6,1.9-2.7,3.4-2.7c0.3,0,0.4,0,0.6,0.1v2.1
	c-0.2,0-0.5-0.1-0.8-0.1c-1.6,0-2.7,1.2-3,2.8c-0.1,0.3-0.1,0.7-0.1,1v6.5h-2.2V64.2z"/>
<path fill="#34444C" d="M320.2,66.9c0.1,3,2,4.2,4.2,4.2c1.6,0,2.5-0.3,3.4-0.6l0.4,1.6c-0.8,0.4-2.1,0.8-4.1,0.8
	c-3.8,0-6-2.5-6-6.1c0-3.7,2.2-6.6,5.7-6.6c4,0,5,3.5,5,5.7c0,0.5-0.1,0.8-0.1,1H320.2z M326.7,65.3c0-1.4-0.6-3.6-3.1-3.6
	c-2.2,0-3.2,2.1-3.4,3.6H326.7z"/>
<path fill="#34444C" d="M330.5,71.3c0-0.9,0.6-1.6,1.5-1.6c0.9,0,1.5,0.7,1.5,1.6c0,0.9-0.6,1.6-1.5,1.6
	C331.1,72.9,330.5,72.2,330.5,71.3"/>
<path fill="#F15F61" d="M146,104.8c-2.1,0-4.3-1.6-6.6-4.7c-0.6-0.9-1.4-1.8-2.3-2.8c-1-1-1.6-1.6-1.9-1.7c-1-0.3-1.5-0.7-1.4-1.2
	c0-0.4,0.4-0.6,1.1-0.6c0.5,0,1,0.1,1.4,0.2c2.4-0.2,4.9-1.3,7.3-3.2c2.5-2,3.9-4.1,4-6.3c0.1-1.5-0.4-2.6-1.6-3.3
	c-1-0.6-2.3-0.9-4-0.9c-3.6,0-7.9,1.8-12.8,5.4c-1,0.7-1.5,1.1-1.6,1.1c-0.2,0-0.5-0.1-0.8-0.3c-0.3-0.2-0.4-0.4-0.4-0.6
	c0-0.1,0.1-0.3,0.2-0.4c1.7-1.6,4-3.1,7.1-4.5c3.2-1.4,6-2.1,8.5-2.1c2.2,0,3.9,0.5,5.1,1.6c1.2,1,1.8,2.5,1.8,4.2
	c0,0.2,0,0.4,0,0.7c-0.1,1.8-1.3,3.7-3.3,5.7c-1.9,1.8-3.8,3-5.7,3.6c-0.5,0.2-1.2,0.4-2.2,0.6c0.3,0.4,0.7,1,1.3,1.8
	c1.3,1.6,2.7,3.2,4.4,4.7c1.1,0.9,2.1,1.4,3.1,1.4c0.2,0,0.5-0.1,0.8-0.2c0.2-0.1,0.7-0.4,1.3-0.7l0.4,0.6c-0.1,0.5-0.5,1-1.4,1.3
	C147.2,104.6,146.6,104.8,146,104.8 M135.4,105.6c-2.6,0-3.8-2.7-3.8-8c0-3.9,0.4-7.8,1.2-11.6c0.2-1,0.6-1.5,1.2-1.5
	c0.6,0,0.9,0.3,0.9,1c0,0.3-0.1,0.9-0.3,1.6c-0.1,0.3-0.3,0.8-0.4,1.5c-0.4,2-0.7,4.1-0.9,6.4c-0.1,1.1-0.1,2.1-0.1,3
	c0,4.2,0.8,6.2,2.3,6.2h0.3l0.5,0.5C136.2,105.3,135.9,105.6,135.4,105.6"/>
<path fill="#F15F61" d="M151.7,96.9c-0.2,0.2-0.5,0.8-0.7,1.8c-0.3,1-0.4,1.9-0.4,2.6c0,1,0.6,1.4,1.9,1.4c1.2,0,2.6-0.7,4.3-2.1
	c1.6-1.4,2.7-2.8,3.3-4.3h0.6c0.2,0.2,0.3,0.4,0.2,0.6c-0.7,2.1-1.9,3.8-3.6,5.1c-1.6,1.3-3.2,2-4.8,2c-1.2,0-2.1-0.4-2.7-1.2
	c-0.6-0.8-0.8-1.8-0.8-3.1c0.1-1.8,1.1-4.1,2.9-6.9c2-2.9,3.8-4.4,5.5-4.4c0.6,0,1,0.3,1.3,0.8c0.2,0.4,0.3,0.8,0.3,1.2
	c0,1.2-0.5,2.6-1.5,4.1c-1.2,1.9-2.6,2.8-4.1,2.8C152.7,97.5,152.2,97.3,151.7,96.9L151.7,96.9z M157.3,89.8
	c-0.5,0.1-0.9,0.4-1.3,0.8c-2.6,3-3.8,4.7-3.8,5.2c0,0.1,0.3,0.2,0.8,0.3c1,0,2-0.6,3.1-2.1c1.1-1.4,1.7-2.6,1.7-3.7
	C157.8,89.9,157.7,89.7,157.3,89.8"/>
<path fill="#F15F61" d="M171.8,96.6l-0.7,0.8c-3.9,5-6.8,7.5-8.6,7.5h-0.4c-1.2,0-1.8-0.6-1.8-1.9c0-1,0.5-2.6,1.6-4.8
	c1.2-2.3,2.5-4.2,3.9-5.8c1.8-1.9,3.4-2.8,4.8-2.8c0.6,0,1.1,0.2,1.7,0.6c0.2-1.4,0.6-3.3,1.1-5.9c0.5-2.5,1-3.7,1.5-3.7
	c0.2,0,0.4,0.1,0.7,0.3c0.2,0.2,0.3,0.4,0.3,0.7c0,0.1-0.2,0.6-0.5,1.6c-1.6,5.3-2.3,10.4-2.3,15.4c0,2.8,0.4,4.2,1.3,4.2
	c0,0,0.1-0.1,0.3-0.2c0.1-0.1,0.4-0.2,0.8-0.4c0.2,0.2,0.3,0.4,0.3,0.6c0,0.3-0.2,0.5-0.6,0.8c-0.3,0.2-0.6,0.3-0.9,0.3
	c-1.8,0-2.7-2.1-2.7-6.2V96.6z M171,90.9c-1.4-0.2-3.3,1.4-5.8,4.9c-2.4,3.4-3.5,5.7-3.5,7.1c0,0.3,0.1,0.5,0.4,0.5
	c1.1,0,2.9-1.3,5.4-3.9c2.3-2.3,3.7-4,4.1-5c0.3-0.6,0.4-1.3,0.4-2c0-0.4-0.1-0.7-0.3-1.1C171.5,91.2,171.3,91,171,90.9"/>
<path fill="#F15F61" d="M179.1,96.9c-0.2,0.2-0.5,0.8-0.7,1.8c-0.3,1-0.4,1.9-0.4,2.6c0,1,0.6,1.4,1.9,1.4c1.2,0,2.6-0.7,4.3-2.1
	c1.6-1.4,2.7-2.8,3.3-4.3h0.6c0.2,0.2,0.3,0.4,0.2,0.6c-0.7,2.1-1.9,3.8-3.6,5.1c-1.6,1.3-3.2,2-4.8,2c-1.2,0-2.1-0.4-2.7-1.2
	c-0.6-0.8-0.8-1.8-0.8-3.1c0.1-1.8,1.1-4.1,2.9-6.9c2-2.9,3.8-4.4,5.5-4.4c0.6,0,1,0.3,1.3,0.8c0.2,0.4,0.3,0.8,0.3,1.2
	c0,1.2-0.5,2.6-1.5,4.1c-1.2,1.9-2.6,2.8-4.1,2.8C180.1,97.5,179.6,97.3,179.1,96.9L179.1,96.9z M184.7,89.8
	c-0.5,0.1-0.9,0.4-1.3,0.8c-2.6,3-3.8,4.7-3.8,5.2c0,0.1,0.3,0.2,0.8,0.3c1,0,2-0.6,3.1-2.1c1.1-1.4,1.7-2.6,1.7-3.7
	C185.3,89.9,185.1,89.7,184.7,89.8"/>
<path fill="#F15F61" d="M200,86.1c-0.3-0.1-0.4-0.3-0.5-0.7c0-0.3-0.1-0.6-0.1-0.9c-0.1-0.5-0.3-1-0.6-1.6c-0.4-0.6-0.8-0.9-1.3-0.9
	c-1.3,0-2.3,1.5-3,4.6c-0.4,1.6-0.6,4-0.8,7.2c0.1,0,0.5-0.1,1-0.2c0.4-0.1,0.8-0.1,1-0.1c1.1,0,1.8,0.4,2.1,1.2
	c0.1,0.1,0.1,0.3,0.1,0.5c0,0.3-0.1,0.4-0.3,0.5c-0.2,0.1-0.4-0.1-0.7-0.4c-0.4-0.4-0.8-0.6-1.3-0.6c-0.4,0-0.8,0.1-1.3,0.3
	c-0.5,0.2-0.8,0.4-0.9,0.6c-0.1,0.1-0.1,0.5-0.1,1c0,0.7,0.1,2.1,0.3,4c0.2,1.9,0.3,3,0.3,3.3c0,0.8-0.3,1.2-1,1.2
	c-0.7,0-0.9-0.4-0.9-1.3v-0.3c0-0.6-0.1-3.1-0.2-7.4c-0.4,0.2-1,0.6-1.9,1.1c-0.3,0.2-0.5,0.3-0.6,0.3c-0.4,0-0.6-0.3-0.6-0.9
	c0-0.2,0-0.3,0.1-0.4c0.3-0.3,1.3-0.8,2.8-1.5l0.4-0.2c0.4-4.2,0.7-6.9,1-8.1c0.9-3.7,2.5-5.5,4.7-5.5c0.8,0,1.5,0.4,2.1,1.3
	c0.5,0.8,0.8,1.6,0.8,2.3C200.6,85.4,200.4,86,200,86.1"/>
<path fill="#F15F61" d="M202.9,104.5c-1.2,0-2.1-0.9-2.7-2.7c-0.4-1.3-0.6-2.5-0.6-3.7c0-1.1,0.1-2.4,0.4-4c0.4-2.3,1-3.5,1.7-3.5
	c0.6,0,0.8,0.3,0.8,1c0,0.3-0.2,0.8-0.5,1.7c-0.4,0.9-0.6,2.4-0.8,4.5c0,1,0,1.6,0,1.8c0.2,0.8,0.3,1.5,0.5,2.3
	c0.3,1,0.8,1.5,1.4,1.5c0.1,0,0.2,0,0.3-0.1c0.2-0.2,0.4-0.4,0.7-0.6c0.3,0.2,0.4,0.4,0.4,0.6c0,0.3-0.2,0.6-0.6,0.9
	C203.5,104.4,203.2,104.5,202.9,104.5 M201.8,86.3c-0.3,0-0.5-0.1-0.7-0.4c-0.2-0.2-0.3-0.5-0.3-0.7c0-0.2,0.1-0.5,0.3-0.7
	c0.2-0.2,0.4-0.4,0.7-0.4c0.6,0,1,0.3,1,1.1C202.8,85.9,202.5,86.3,201.8,86.3"/>
<path fill="#F15F61" d="M207.4,97.9l0.3-0.6c2.6-4.5,4.5-6.7,5.6-6.7c1,0,1.7,0.8,2.1,2.3c0.1,1.2,0.2,2.3,0.3,3.5
	c0.2,1.9,0.3,3,0.4,3.3c0.3,1.7,0.7,2.6,1.2,2.6c0.2,0,0.6-0.2,1-0.6l0.7,0.2c0,0.5-0.2,0.9-0.6,1.2c-0.3,0.2-0.6,0.4-0.9,0.4
	c-1.8,0-2.9-2-3.3-6c-0.1-0.9-0.2-2.2-0.4-3.9c-0.1-1-0.3-1.5-0.5-1.5c-0.4,0-1.4,1.3-3.1,3.9c-1.6,2.6-2.8,5-3.5,7.2
	c-0.2,0.6-0.5,0.9-0.9,0.9c-0.6,0-0.8-0.3-0.8-0.8c0-0.2,0.4-2.8,1.2-7.8c0-0.6,0.1-1.5,0.2-2.6c0.1-1,0.5-1.5,1.1-1.5
	c0.4,0,0.6,0.1,0.8,0.4c0.1,0.3,0.1,0.6,0.2,0.8L207.4,97.9z"/>
<path fill="#F15F61" d="M222.7,104.5c-1.2,0-2.1-0.9-2.7-2.7c-0.4-1.3-0.6-2.5-0.6-3.7c0-1.1,0.1-2.4,0.4-4c0.4-2.3,1-3.5,1.7-3.5
	c0.6,0,0.8,0.3,0.8,1c0,0.3-0.2,0.8-0.5,1.7c-0.4,0.9-0.6,2.4-0.8,4.5c0,1,0,1.6,0,1.8c0.2,0.8,0.3,1.5,0.5,2.3
	c0.3,1,0.8,1.5,1.4,1.5c0.1,0,0.2,0,0.3-0.1c0.2-0.2,0.4-0.4,0.7-0.6c0.3,0.2,0.4,0.4,0.4,0.6c0,0.3-0.2,0.6-0.6,0.9
	C223.3,104.4,223,104.5,222.7,104.5 M221.6,86.3c-0.3,0-0.5-0.1-0.7-0.4c-0.2-0.2-0.3-0.5-0.3-0.7c0-0.2,0.1-0.5,0.3-0.7
	c0.2-0.2,0.4-0.4,0.7-0.4c0.6,0,1,0.3,1,1.1C222.6,85.9,222.3,86.3,221.6,86.3"/>
<path fill="#F15F61" d="M227.2,97.9l0.3-0.6c2.6-4.5,4.5-6.7,5.6-6.7c1,0,1.7,0.8,2.1,2.3c0.1,1.2,0.2,2.3,0.3,3.5
	c0.2,1.9,0.3,3,0.4,3.3c0.3,1.7,0.7,2.6,1.2,2.6c0.2,0,0.6-0.2,1-0.6l0.7,0.2c0,0.5-0.2,0.9-0.6,1.2c-0.3,0.2-0.6,0.4-0.9,0.4
	c-1.8,0-2.9-2-3.3-6c-0.1-0.9-0.2-2.2-0.4-3.9c-0.1-1-0.3-1.5-0.5-1.5c-0.4,0-1.4,1.3-3.1,3.9c-1.6,2.6-2.8,5-3.5,7.2
	c-0.2,0.6-0.5,0.9-0.9,0.9c-0.6,0-0.8-0.3-0.8-0.8c0-0.2,0.4-2.8,1.2-7.8c0-0.6,0.1-1.5,0.2-2.6c0.1-1,0.5-1.5,1.1-1.5
	c0.4,0,0.6,0.1,0.8,0.4c0.1,0.3,0.1,0.6,0.2,0.8L227.2,97.9z"/>
<path fill="#F15F61" d="M244.6,115.2c-1.5,0-3-0.7-4.2-2.1c-1.3-1.4-1.9-2.9-1.9-4.5c0-0.7,0.2-1.1,0.7-1.1c0.3,0,0.5,0.2,0.5,0.6
	c0,1.4,0.4,2.7,1.4,3.8c1,1.1,2,1.7,3.2,1.7c2.4,0,4.2-1.8,5.4-5.4c0.8-2.3,1.1-4.6,1.1-6.9c0-4.6-0.4-6.9-1.2-6.9
	c0,0-0.3,0.4-0.8,1.2c-1.5,2.3-2.6,3.8-3.2,4.5c-1.6,1.8-3,2.7-4.3,2.7c-0.7,0-1.2-0.3-1.6-0.8c-0.3-0.5-0.5-1-0.5-1.7
	c0-2.1,1.3-4.7,3.9-8c2.6-3.3,4.8-4.9,6.4-4.9c0.7,0,1.2,0.4,1.6,1.1c0.3,0.6,0.5,1.1,0.5,1.7c0,1-0.3,1.5-0.8,1.5
	c-0.7,0-1-0.6-0.9-1.9c0-0.8-0.1-1.2-0.4-1.2c-0.9,0-2.1,0.9-3.7,2.7c-1.1,1.3-2,2.5-2.7,3.6c-0.5,0.6-1,1.4-1.5,2.5
	c-0.6,1.3-0.9,2.3-0.9,3c0,0.5,0.1,0.8,0.3,0.8c0.9,0,2.1-0.8,3.5-2.3c0.5-0.6,1.7-2,3.5-4.3c1.2-1.5,2-2.3,2.4-2.3
	c0.8,0,1.4,1.2,1.9,3.6c0.3,1.6,0.4,3.3,0.4,4.8c0,3.9-0.8,7.2-2.3,10C248.6,113.9,246.7,115.2,244.6,115.2"/>
<path fill="#F15F61" d="M266.4,94.8c2.5-3.6,5-5.5,7.5-5.5c1.6,0,2.5,1.2,2.5,3.5c0,1.9-0.9,4.1-2.6,6.4c-1.8,2.4-3.5,3.6-5.1,3.6
	c-1.2,0-1.9-0.6-1.9-1.9c0-0.4,0.1-0.9,0.4-1.5h0.8c0,0.3,0,0.5,0,0.8c-0.1,0.3-0.1,0.6-0.1,0.8c0,0.3,0.2,0.4,0.5,0.4
	c1.6,0,3.1-1.2,4.5-3.7c1.3-2.2,1.9-4,1.9-5.3c0-1.2-0.3-1.9-1-1.9c-1.3,0-2.9,1.1-4.7,3.3c-1.6,2-2.6,3.6-2.8,4.9
	c-0.5,2.2-0.7,4.8-0.7,7.7c-0.1,4.1,0.6,6.2,1.8,6.2c0,0,0.1,0,0.2-0.1c0.1,0,0.4-0.2,0.9-0.3v0.7c0,0.2-0.2,0.4-0.6,0.6
	c-0.3,0.1-0.6,0.2-0.7,0.2c-1-0.1-1.8-0.8-2.4-2.2c-0.4-1.1-0.7-2.4-0.7-3.8c0-0.7,0-1.4,0-2.1c0-2.6,0.3-7.2,0.9-13.7
	c0.2-1.8,0.7-2.7,1.6-2.7c0.6,0,0.8,0.3,0.8,0.9c0,0.1,0,0.1,0,0.2L266.4,94.8z"/>
<path fill="#F15F61" d="M279.8,94c1.5-3.9,3.2-5.8,4.9-5.8c1.2,0,1.8,0.5,2,1.6c0.1,0.6-0.1,1-0.6,1c-0.2,0-0.3-0.1-0.4-0.2
	c0-0.1-0.1-0.3-0.1-0.5l0-0.2c0-0.2-0.2-0.4-0.5-0.4c-0.6,0-1.4,0.6-2.3,1.9c-1.1,1.5-1.9,2.9-2.3,4.1c-0.5,1.3-0.7,2.9-0.7,4.6
	c0,0.1,0,1.1,0.1,3c0,0.2-0.1,0.5-0.4,0.7c-0.2,0.2-0.5,0.3-0.7,0.3c-0.7,0-1-0.5-0.9-1.6c0.2-2.5,0.3-4.5,0.3-6.2
	c0-1.7-0.1-3.6-0.3-5.8c0-0.2,0.1-0.5,0.3-0.8c0.2-0.3,0.5-0.4,0.7-0.4c0.4,0,0.7,0.2,0.9,0.6c0.1,0.3,0.2,0.6,0.1,0.8
	C279.9,92.1,279.8,93.2,279.8,94"/>
<path fill="#F15F61" d="M290,104.1c-1.1,0.1-1.9-0.3-2.6-1.1c-0.6-0.7-0.9-1.7-0.9-2.8c0-1.9,0.5-3.9,1.4-6.1
	c0.9-2.2,1.7-3.3,2.5-3.3c0.7,0,1.1,0.3,1.1,0.9c0,0.2-0.2,0.5-0.6,1.1c-1.9,2.6-2.9,4.9-2.9,7.2c0,1.9,0.5,2.9,1.4,2.9
	c1.4,0,2.9-1.3,4.3-4c1.2-2.3,1.8-4.1,1.8-5.5c0-2-0.5-3-1.5-3c-0.8,0-1.6,0.4-2.4,1.2l-0.3-0.2c-0.2-0.1-0.3-0.2-0.3-0.4
	c0-0.4,0.4-0.8,1.3-1.3c0.7-0.4,1.3-0.5,1.6-0.5c2,0,3,1.5,3.1,4.6c0,1.5-0.6,3.4-2,5.9C293.6,102.5,291.9,104,290,104.1"/>
<path fill="#F15F61" d="M308.7,96.6l-0.7,0.8c-3.9,5-6.8,7.5-8.6,7.5H299c-1.2,0-1.8-0.6-1.8-1.9c0-1,0.5-2.6,1.6-4.8
	c1.2-2.3,2.5-4.2,3.9-5.8c1.8-1.9,3.4-2.8,4.8-2.8c0.6,0,1.1,0.2,1.7,0.6c0.2-1.4,0.6-3.3,1.1-5.9c0.5-2.5,1-3.7,1.5-3.7
	c0.2,0,0.4,0.1,0.7,0.3c0.2,0.2,0.3,0.4,0.3,0.7c0,0.1-0.2,0.6-0.5,1.6c-1.6,5.3-2.3,10.4-2.3,15.4c0,2.8,0.4,4.2,1.3,4.2
	c0,0,0.1-0.1,0.3-0.2c0.1-0.1,0.4-0.2,0.8-0.4c0.2,0.2,0.3,0.4,0.3,0.6c0,0.3-0.2,0.5-0.6,0.8c-0.3,0.2-0.6,0.3-0.9,0.3
	c-1.8,0-2.7-2.1-2.7-6.2V96.6z M307.8,90.9c-1.4-0.2-3.3,1.4-5.8,4.9c-2.4,3.4-3.5,5.7-3.5,7.1c0,0.3,0.1,0.5,0.4,0.5
	c1.1,0,2.9-1.3,5.4-3.9c2.3-2.3,3.7-4,4.1-5c0.3-0.6,0.4-1.3,0.4-2c0-0.4-0.1-0.7-0.3-1.1C308.3,91.2,308.1,91,307.8,90.9"/>
<path fill="#F15F61" d="M322,95.9c-1.3,2.8-2.2,4.4-2.6,5c-1.3,2-2.7,3-4.2,3c-1.2,0-1.7-1.2-1.7-3.5c0-0.7,0.4-2.5,1.1-5.4
	c0.8-3.3,1.5-5,2-5c0.3,0,0.5,0.1,0.8,0.2c0.3,0.2,0.4,0.4,0.4,0.6c0,0.1-0.1,0.3-0.1,0.5l-0.3,0.8c-1.6,4.2-2.3,7.2-2.3,8.8
	c0,1,0.2,1.5,0.5,1.5c0.4,0,1.1-0.6,2.1-1.7c1-1.2,2-2.8,3-4.8c1.1-2.2,1.7-3.8,1.7-4.9c0-0.4,0.1-0.8,0.4-1.1
	c0.2-0.3,0.5-0.5,0.8-0.5c0.6,0,0.9,0.3,0.9,0.9c0,0.1-0.1,0.7-0.3,1.8c-0.2,1.1-0.3,2.2-0.3,3.2c0,3.9,0.6,5.8,1.8,5.8
	c0.3,0,0.6-0.2,0.9-0.5c0.1-0.1,0.4-0.3,0.6-0.5c0.3,0.2,0.4,0.4,0.4,0.6c0,0.4-0.3,0.8-0.9,1.2c-0.5,0.3-0.9,0.4-1.2,0.4
	c-1.9,0-3-2.1-3.4-6.3L322,95.9z"/>
<path fill="#F15F61" d="M337.9,91.5c-0.3,0-0.6-0.2-1.1-0.7c-0.4-0.4-0.8-0.7-1.3-0.7c-1.5,0-3.1,1.4-4.6,4.2
	c-1.4,2.5-2.1,4.4-2.1,5.8c0,1.5,0.7,2.3,2,2.3c1.3,0,2.6-0.4,3.8-1.3c1.2-0.8,2.2-1.8,3-3.1c0.1-0.1,0.2-0.2,0.3-0.2
	c0.1,0,0.3,0.1,0.4,0.3c0.1,0.2,0.2,0.4,0.1,0.5c-0.1,0.4-0.8,1.2-2.1,2.5c-1.2,1.1-1.9,1.8-2.1,1.9c-1.2,0.7-2,1-2.3,1
	c0,0-0.2,0-0.5,0c-0.3,0-0.4,0-0.5,0c-1.3,0-2.2-0.5-2.9-1.4c-0.5-0.8-0.8-1.7-0.8-2.9c0-1.8,0.8-4,2.4-6.6c1.9-3,3.8-4.5,5.9-4.5
	c0.4,0,0.9,0.2,1.6,0.5c0.9,0.4,1.4,0.9,1.4,1.4c0,0.2-0.1,0.4-0.3,0.6C338.3,91.4,338.1,91.5,337.9,91.5"/>
<path fill="#F15F61" d="M344.9,91.9c0.6-0.1,1.2-0.2,2-0.2c0.4,0,0.8,0.1,1.3,0.4c0.6,0.3,0.9,0.7,0.9,1.2c0,0.1,0,0.2-0.1,0.2
	l0,0.1c0,0,0,0-0.1,0.1c-0.1,0-0.2,0.1-0.1,0.1h0c-0.1,0-0.2,0.1-0.3,0.1c-0.1,0-0.2-0.1-0.3-0.2c-0.2-0.6-0.7-0.9-1.2-0.9
	c-0.2,0-0.4,0-0.7,0.1c-0.5,0.1-1,0.4-1.6,0.7c0,0.1,0,0.2,0,0.3c-0.2,1.2-0.2,2.7-0.1,4.5c0.1,3.3,0.9,4.9,2.2,4.9
	c0.4,0,0.7-0.2,1.1-0.6c0.3-0.4,0.5-0.6,0.7-0.6c0.4,0,0.6,0.2,0.6,0.6c0,0.4-0.4,0.9-1.1,1.3c-0.6,0.3-1.1,0.5-1.3,0.5
	c-1.1,0-2-0.6-2.7-1.8c-0.5-0.9-0.8-1.8-0.9-2.9c-0.2-1.9-0.2-3.7,0-5.5c-0.7,0.2-1.5,0.7-2.5,1.4c-0.1,0.1-0.2,0.1-0.3,0.1
	c-0.3,0-0.5-0.3-0.5-1c0-0.4,1-1.1,3-2.1c0.1,0,0.2-0.1,0.4-0.1c0.1-0.8,0.2-2.1,0.4-3.7c0.2-1.7,0.6-2.5,1.2-2.5
	c0.5,0,0.8,0.3,0.8,1L344.9,91.9z"/>
<path fill="#F15F61" d="M353.1,104.5c-1.2,0-2.1-0.9-2.7-2.7c-0.4-1.3-0.6-2.5-0.6-3.7c0-1.1,0.1-2.4,0.4-4c0.4-2.3,1-3.5,1.7-3.5
	c0.6,0,0.8,0.3,0.8,1c0,0.3-0.2,0.8-0.5,1.7c-0.4,0.9-0.6,2.4-0.8,4.5c0,1,0,1.6,0,1.8c0.2,0.8,0.3,1.5,0.5,2.3
	c0.3,1,0.8,1.5,1.4,1.5c0.1,0,0.2,0,0.3-0.1c0.2-0.2,0.4-0.4,0.7-0.6c0.3,0.2,0.4,0.4,0.4,0.6c0,0.3-0.2,0.6-0.6,0.9
	C353.7,104.4,353.4,104.5,353.1,104.5 M352,86.3c-0.3,0-0.5-0.1-0.7-0.4c-0.2-0.2-0.3-0.5-0.3-0.7c0-0.2,0.1-0.5,0.3-0.7
	c0.2-0.2,0.4-0.4,0.7-0.4c0.6,0,1,0.3,1,1.1C353,85.9,352.7,86.3,352,86.3"/>
<path fill="#F15F61" d="M367.4,90.7L367.4,90.7c-0.8,0-1.9,1.5-3.4,4.6c-0.9,2.1-1.8,4.3-2.7,6.4c-0.7,1.5-1.2,2.3-1.5,2.3
	c-0.4,0-0.8-0.7-1.3-2.1c-0.3-0.9-0.8-2.3-1.5-4.4c-0.4-0.9-0.9-2.1-1.7-3.6c-0.4-0.8-0.8-1.5-1.2-2.3c0-0.1-0.1-0.2-0.1-0.3
	c0-0.2,0.1-0.5,0.4-0.6c0.2-0.1,0.4-0.2,0.6-0.2c0.5,0,1.3,1.3,2.4,4c0.1,0.1,0.8,1.9,2.1,5.4c0.4,1,0.5,1.5,0.5,1.5l0.6-1.7
	c1.3-3.2,2.1-5.3,2.6-6.1c1.4-2.7,2.8-4.1,4.1-4.1c0.5,0,0.8,0.2,0.8,0.7c0,0.2-0.2,0.4-0.5,0.4C367.7,90.7,367.6,90.7,367.4,90.7"
	/>
<path fill="#F15F61" d="M370.8,104.5c-1.2,0-2.1-0.9-2.7-2.7c-0.4-1.3-0.6-2.5-0.6-3.7c0-1.1,0.1-2.4,0.4-4c0.4-2.3,1-3.5,1.7-3.5
	c0.6,0,0.8,0.3,0.8,1c0,0.3-0.2,0.8-0.5,1.7c-0.4,0.9-0.6,2.4-0.8,4.5c0,1,0,1.6,0,1.8c0.2,0.8,0.3,1.5,0.5,2.3
	c0.3,1,0.8,1.5,1.4,1.5c0.1,0,0.2,0,0.3-0.1c0.2-0.2,0.4-0.4,0.7-0.6c0.3,0.2,0.4,0.4,0.4,0.6c0,0.3-0.2,0.6-0.6,0.9
	C371.4,104.4,371.1,104.5,370.8,104.5 M369.7,86.3c-0.3,0-0.5-0.1-0.7-0.4c-0.2-0.2-0.3-0.5-0.3-0.7c0-0.2,0.1-0.5,0.3-0.7
	c0.2-0.2,0.4-0.4,0.7-0.4c0.6,0,1,0.3,1,1.1C370.7,85.9,370.3,86.3,369.7,86.3"/>
<path fill="#F15F61" d="M377.1,91.9c0.6-0.1,1.2-0.2,2-0.2c0.4,0,0.8,0.1,1.3,0.4c0.6,0.3,0.9,0.7,0.9,1.2c0,0.1,0,0.2-0.1,0.2
	l0,0.1c0,0,0,0-0.1,0.1c-0.1,0-0.2,0.1-0.1,0.1h0c-0.1,0-0.2,0.1-0.3,0.1c-0.1,0-0.2-0.1-0.3-0.2c-0.2-0.6-0.7-0.9-1.2-0.9
	c-0.2,0-0.4,0-0.7,0.1c-0.5,0.1-1,0.4-1.6,0.7c0,0.1,0,0.2,0,0.3c-0.2,1.2-0.2,2.7-0.1,4.5c0.1,3.3,0.9,4.9,2.2,4.9
	c0.4,0,0.7-0.2,1.1-0.6c0.3-0.4,0.5-0.6,0.7-0.6c0.4,0,0.6,0.2,0.6,0.6c0,0.4-0.4,0.9-1.1,1.3c-0.6,0.3-1.1,0.5-1.3,0.5
	c-1.1,0-2-0.6-2.7-1.8c-0.5-0.9-0.8-1.8-0.9-2.9c-0.2-1.9-0.2-3.7,0-5.5c-0.7,0.2-1.5,0.7-2.5,1.4c-0.1,0.1-0.2,0.1-0.4,0.1
	c-0.3,0-0.5-0.3-0.5-1c0-0.4,1-1.1,3-2.1c0.1,0,0.2-0.1,0.4-0.1c0.1-0.8,0.2-2.1,0.4-3.7c0.2-1.7,0.6-2.5,1.2-2.5
	c0.5,0,0.8,0.3,0.8,1L377.1,91.9z"/>
<path fill="#F15F61" d="M384.7,114.1c-1.8,0-3.4-0.8-4.8-2.3c-1.2-1.3-1.9-2.5-1.9-3.6c0-0.5,0.2-0.8,0.6-0.8c0.2,0,0.4,0.2,0.5,0.6
	c0.1,0.3,0.1,0.5,0.2,0.8c0.4,1,0.9,1.9,1.7,2.5c0.8,0.7,1.7,1.1,2.8,1.2c2.6,0.2,4.7-1.2,6.2-4.3c1.2-2.5,1.8-5.3,1.8-8.3
	c0-2.1-0.3-4.7-0.9-7.8c-1,2.7-1.9,4.7-2.6,6c-1.4,2.6-2.8,4.2-4.1,4.6c-0.2,0.1-0.5,0.1-0.7,0.1c-1.2,0-1.8-0.9-1.8-2.7
	c0-1.7,0.4-4,1.3-7.1c0.9-3.2,1.7-4.8,2.4-4.9c0.2,0,0.5,0.1,0.8,0.3c0.3,0.2,0.4,0.4,0.4,0.6c0,0.1,0,0.1,0,0.2
	c-0.7,1.1-1.4,2.5-2,4.2c-0.9,2.4-1.3,4.5-1.3,6.5c0,1,0.2,1.6,0.5,1.6c0.4,0,1-0.7,1.9-2c0.4-0.6,0.8-1.3,1.3-2.1
	c1.7-2.7,2.8-5,3-6.8c0.1-0.6,0.1-1.2,0.1-1.7c-0.1-0.8,0.2-1.3,0.9-1.3c0.7,0,1.1,0.6,1.2,1.9l0,0.2c0.3,2.7,0.6,4.4,1,5.1
	c0.2,0.4,0.3,2.1,0.3,5.1c0,2.8-0.6,5.6-1.8,8.3C390.1,112.2,387.7,114.1,384.7,114.1"/>
<path fill="#F15F61" d="M398.4,102.7c-0.3,0-0.6-0.1-0.9-0.3c-0.3-0.2-0.5-0.5-0.5-0.8c0-0.6,0.3-1,1-1c1,0,1.4,0.3,1.4,0.8
	C399.5,102.2,399.1,102.7,398.4,102.7"/>
<path fill="#F15F61" d="M37.7,53.4C37.7,41.6,47.2,32,59,32c1,0,1.9,0.1,2.9,0.2c3.1-5.5,4.6-10.9,4.6-16.1
	c0-6.4-5.4-14.2-14.9-15.5C41.3-0.7,33.2,13.2,33.2,13.2S24.4-1.2,14.9,0.1C4.4,1.5,0,9.8,0,16.2c0,0.6,0,1.3,0.1,2
	c0.1,0,0.2,0,0.4,0h10.4c0.8,0,1.6,0.4,2,1.1l4.1,6.9l3.7-10c0.3-0.8,1.1-1.4,2.1-1.4c0.9,0,1.8,0.5,2.2,1.3l7.6,17.1l4-11.2
	c0.3-0.9,1.2-1.5,2.2-1.5h13.7c1.3,0,2.3,1,2.3,2.2c0,1.2-1,2.2-2.3,2.2H40.3l-5.3,15.2c-0.3,0.9-1.1,1.5-2.1,1.5h-0.1
	c-0.9,0-1.7-0.5-2.1-1.3L23,22.9l-3.4,9.2c-0.3,0.8-1.1,1.4-1.9,1.4c-0.9,0.1-1.7-0.3-2.2-1.1l-5.9-9.9H1.1
	c3.2,10.6,13.5,25.9,32.2,36.6c1.6-1,3.2-2,4.6-3C37.8,55.3,37.7,54.3,37.7,53.4"/>
<path fill="#026853" d="M47.1,67.6c7.5,6.8,19.1,6.4,26-1l4.1,3.8l0.1-12.6l-12.5,1.3l4.8,4.4c-5.2,5.4-13.9,5.7-19.5,0.6
	c-5.7-5.2-6.1-14-0.9-19.8c5.2-5.7,14.1-6.2,19.8-1c2.3,2.1,3.7,4.8,4.3,7.6l4.7-0.4c-0.7-4-2.6-7.7-5.8-10.7
	c-7.6-6.9-19.4-6.3-26.4,1.3C38.9,48.8,39.5,60.7,47.1,67.6"/>
<path fill="#34444C" d="M57.5,54.3c0,1,0.8,1.7,1.7,1.7c1,0,1.7-0.8,1.7-1.7s-0.8-1.7-1.7-1.7C58.2,52.5,57.5,53.3,57.5,54.3"/>
<path fill="#34444C" d="M57.3,54.3c0-1.1,0.9-1.9,1.9-1.9c1.1,0,1.9,0.9,1.9,1.9c0,1.1-0.9,1.9-1.9,1.9
	C58.1,56.2,57.3,55.3,57.3,54.3 M57.6,54.3c0,0.9,0.7,1.6,1.6,1.6c0.9,0,1.6-0.7,1.6-1.6c0-0.9-0.7-1.6-1.6-1.6
	C58.3,52.7,57.6,53.4,57.6,54.3"/>
<rect x="59.4" y="53.4" fill="#34444C" width="8.1" height="1.8"/>
<rect x="52.8" y="49" transform="matrix(0.4333 0.9013 -0.9013 0.4333 77.1432 -22.9382)" fill="#34444C" width="8.1" height="1.8"/>
<rect x="68.8" y="53.7" fill="#34444C" width="2.6" height="1.1"/>
<rect x="47.4" y="53.7" fill="#34444C" width="2.6" height="1.1"/>
<rect x="58.8" y="42.3" fill="#34444C" width="1.1" height="2.6"/>
<rect x="58.8" y="63.6" fill="#34444C" width="1.1" height="2.6"/>
</svg>
