<?xml version="1.0" encoding="utf-8"?>
<!-- Generator: Adobe Illustrator 22.1.0, SVG Export Plug-In . SVG Version: 6.00 Build 0)  -->
<svg version="1.1" id="Careers" xmlns="http://www.w3.org/2000/svg" xmlns:xlink="http://www.w3.org/1999/xlink" x="0px" y="0px"
	 viewBox="0 0 200 200" style="enable-background:new 0 0 200 200;" xml:space="preserve">
<style type="text/css">
	.st0{fill:#00BBB3;}
	.st1{fill:#FFFFFF;}
	.st2{fill:#3E4545;stroke:#00BBB3;stroke-width:4.46;}
</style>
<title>Artboard 1</title>
<g id="_90_Company-Paid_Premium">
	<circle class="st0" cx="100" cy="100" r="97.3"/>
	<path class="st1" d="M72.8,64.5c-2.2,0.3-4.2-1.2-4.6-3.4c-0.3-2.2,1.2-4.2,3.4-4.6c0.4-0.1,0.8-0.1,1.2,0H106
		c2.2-0.3,4.2,1.2,4.6,3.4c0.3,2.2-1.2,4.2-3.4,4.6c-0.4,0.1-0.8,0.1-1.2,0H72.8z M58.5,76.5c-1.5,0-2.6-1.2-2.6-2.6
		c0-1.5,1.2-2.6,2.6-2.6h61.9c1.5,0,2.6,1.2,2.6,2.6c0,1.5-1.2,2.6-2.6,2.6H58.5z M58.5,86.9c-1.5,0-2.6-1.2-2.6-2.6
		c0-1.5,1.2-2.6,2.6-2.6h61.9c1.5,0,2.6,1.2,2.6,2.6c0,1.5-1.2,2.6-2.6,2.6H58.5z M58.5,97.4c-1.5,0-2.6-1.2-2.6-2.6
		c0-1.5,1.2-2.6,2.6-2.6h54.9c1.5,0,2.6,1.2,2.6,2.6c0,1.5-1.2,2.6-2.6,2.6H58.5z M58.5,107.9c-1.5-0.1-2.6-1.3-2.5-2.8
		c0.1-1.3,1.1-2.4,2.5-2.5H103c1.5,0.1,2.6,1.3,2.5,2.8c-0.1,1.3-1.1,2.4-2.5,2.5H58.5z M63.4,137.4c-0.6,1.4-2.2,2.1-3.6,1.5
		c0,0,0,0,0,0c-1.4-0.7-2.1-2.2-1.7-3.7c0.6-2.9,2.6-6,4.3-8.4c4.2-5.9,9.9-9.6,14.7-10.4c0.2,0,0.4-0.1,0.5-0.1
		c2.7-0.3,4,1.3,4.3,4s-1.1,6.8-2.5,10.4c0.8-0.6,1.6-1.3,2.3-1.9c1.7-1.3,3.2-2.4,4.3-3.1c3.8-2.4,5.8-2.1,6.8,0c1,2,0.1,3.7-1,5.8
		c-0.3,0.6-0.7,1.3-0.9,1.9H101c1.8,0.2,3.1,1.9,2.8,3.6c-0.2,1.5-1.4,2.7-2.8,2.8c-3.7,0-7.5,0.1-11.2,0s-5.2-2.2-5.2-5.1
		c0-0.1,0-0.3,0-0.4c-3.3,2.5-7.1,5.4-9.7,5.7c-0.5,0.1-1,0.1-1.5-0.1c-2.1-0.8-2.9-2.5-2-5.6c0.2-0.8,0.7-1.9,1.3-3.3
		c1-2.3,2.3-5.6,3-7.8c-3.6,1.6-6.7,4.2-8.9,7.5C65.5,132.9,64.3,135.1,63.4,137.4L63.4,137.4z M51.6,42c-4.6,0-8.3,3.6-8.3,8.2
		c0,0,0,0.1,0,0.1v99.2c-0.1,4.6,3.5,8.4,8.1,8.5c0.2,0,0.4,0,0.5,0h75.3c4.5,0,8.2-3.7,8.2-8.3v-16.4l-6.5,6.5
		c-0.4,0.4-0.9,0.8-1.4,1.2v9.2H51.3V49.8h76.4v30.7l7.9-7.9V50.2c0-4.5-3.7-8.2-8.2-8.2H51.6z"/>
	<path class="st2" d="M168.7,107.4c0,18.1-14.7,32.8-32.8,32.8s-32.8-14.7-32.8-32.8c0-18.1,14.7-32.8,32.8-32.8c0,0,0,0,0,0
		C154,74.6,168.7,89.3,168.7,107.4z"/>
	<path class="st1" d="M140.7,102.1L140.7,102.1c-0.1-2,1.4-3.7,3.4-3.8c0.1,0,0.1,0,0.2,0c2,0,3.5,1.6,3.5,3.6c0,0.1,0,0.1,0,0.2
		l0,0c0.2,1.9-1.2,3.7-3.1,3.9c-1.9,0.2-3.7-1.2-3.9-3.1C140.7,102.5,140.7,102.3,140.7,102.1L140.7,102.1z M145.8,102.1
		L145.8,102.1c0-1.2-0.7-2.2-1.6-2.2s-1.6,1-1.6,2.1l0,0c0,1.2,0.7,2.2,1.6,2.2S145.9,103.2,145.8,102.1L145.8,102.1z M143.2,112
		l9.8-13.3c0.2-0.2,0.4-0.4,0.7-0.4c0.5,0,0.8,0.4,0.8,0.8c0,0,0,0,0,0c0,0.2-0.1,0.4-0.2,0.6l-9.8,13.3c-0.2,0.3-0.4,0.4-0.8,0.4
		c-0.5,0-0.8-0.4-0.8-0.8c0,0,0,0,0,0C143,112.4,143.1,112.2,143.2,112z M149.7,109.7L149.7,109.7c-0.2-1.9,1.2-3.7,3.1-3.9
		c1.9-0.2,3.7,1.2,3.9,3.1c0,0.2,0,0.5,0,0.7l0,0c0.1,2-1.4,3.7-3.4,3.8c0,0-0.1,0-0.1,0c-2,0-3.5-1.7-3.5-3.6
		C149.7,109.8,149.7,109.7,149.7,109.7L149.7,109.7z M154.8,109.7L154.8,109.7c0-1.2-0.7-2.2-1.6-2.2s-1.6,1-1.6,2.1l0,0
		c0,1.2,0.7,2.2,1.6,2.2S154.8,110.8,154.8,109.7L154.8,109.7z"/>
</g>
<g>
	<path class="st1" d="M126.3,109.6c0,0.7-0.1,1.2-0.4,1.7c-0.2,0.5-0.6,0.9-1,1.3s-1,0.6-1.6,0.8c-0.6,0.2-1.4,0.3-2.2,0.3
		c-0.8,0-1.5-0.1-2.1-0.2c-0.6-0.2-1.1-0.4-1.6-0.7c-0.4-0.3-0.8-0.7-1-1.2s-0.3-1-0.3-1.6c0-0.5,0.1-0.9,0.2-1.3
		c0.2-0.4,0.4-0.8,0.7-1.1c0.3-0.3,0.7-0.6,1.1-0.9c0.4-0.3,0.9-0.6,1.5-0.8c-0.5-0.2-0.9-0.5-1.2-0.8s-0.7-0.6-0.9-0.9
		c-0.3-0.3-0.4-0.7-0.6-1c-0.1-0.4-0.2-0.7-0.2-1.2c0-0.5,0.1-1,0.3-1.5c0.2-0.5,0.5-0.9,0.9-1.2s0.9-0.6,1.5-0.8
		c0.6-0.2,1.3-0.3,2.1-0.3c0.8,0,1.4,0.1,2,0.3c0.6,0.2,1,0.4,1.4,0.7c0.4,0.3,0.6,0.7,0.8,1.1c0.2,0.4,0.3,0.9,0.3,1.4
		c0,0.4-0.1,0.8-0.2,1.1c-0.1,0.4-0.3,0.7-0.6,1c-0.3,0.3-0.6,0.6-0.9,0.9c-0.4,0.3-0.8,0.6-1.2,0.8c0.6,0.3,1,0.6,1.5,0.8
		s0.8,0.6,1.1,0.9s0.5,0.7,0.7,1.1C126.2,108.7,126.3,109.1,126.3,109.6z M124.3,109.8c0-0.4-0.1-0.7-0.2-1
		c-0.1-0.3-0.3-0.6-0.6-0.8c-0.3-0.3-0.6-0.5-1-0.7c-0.4-0.2-0.9-0.5-1.4-0.7c-0.5,0.2-0.9,0.5-1.3,0.7c-0.4,0.2-0.7,0.5-0.9,0.7
		c-0.2,0.3-0.4,0.5-0.5,0.8c-0.1,0.3-0.2,0.6-0.2,0.9c0,0.8,0.3,1.3,0.8,1.8c0.5,0.4,1.3,0.6,2.3,0.6c1,0,1.8-0.2,2.3-0.6
		C124,111.1,124.3,110.5,124.3,109.8z M123.8,101.8c0-0.3-0.1-0.6-0.2-0.9c-0.1-0.3-0.3-0.5-0.5-0.7c-0.2-0.2-0.5-0.3-0.8-0.4
		c-0.3-0.1-0.7-0.1-1.1-0.1c-0.8,0-1.5,0.2-1.9,0.6c-0.4,0.4-0.6,0.9-0.6,1.6c0,0.3,0.1,0.6,0.2,0.8c0.1,0.3,0.3,0.5,0.5,0.7
		c0.2,0.2,0.5,0.5,0.8,0.7c0.3,0.2,0.7,0.5,1.2,0.7c0.8-0.4,1.4-0.9,1.8-1.3C123.6,102.9,123.8,102.4,123.8,101.8z"/>
	<path class="st1" d="M138,108.6c0,0.8-0.1,1.5-0.4,2.2c-0.3,0.6-0.7,1.2-1.2,1.6c-0.5,0.4-1.1,0.8-1.8,1c-0.7,0.2-1.5,0.3-2.3,0.3
		c-0.5,0-0.9,0-1.3-0.1c-0.4-0.1-0.8-0.1-1.1-0.2c-0.3-0.1-0.6-0.2-0.8-0.3c-0.2-0.1-0.3-0.2-0.4-0.2c-0.1-0.1-0.1-0.1-0.1-0.2
		s0-0.1-0.1-0.2s0-0.1,0-0.3s0-0.2,0-0.4c0-0.1,0-0.3,0-0.4c0-0.1,0-0.2,0.1-0.3s0.1-0.1,0.1-0.1s0.1,0,0.1,0c0.1,0,0.2,0,0.4,0.1
		c0.2,0.1,0.4,0.2,0.7,0.3c0.3,0.1,0.6,0.2,1,0.3c0.4,0.1,0.9,0.2,1.5,0.2c0.5,0,1-0.1,1.4-0.2c0.4-0.1,0.8-0.3,1.1-0.6
		s0.6-0.6,0.7-1c0.2-0.4,0.3-0.9,0.3-1.5c0-0.5-0.1-0.9-0.2-1.3c-0.2-0.4-0.4-0.7-0.7-0.9c-0.3-0.2-0.7-0.4-1.2-0.5
		c-0.5-0.1-1.1-0.2-1.7-0.2c-0.5,0-0.9,0-1.2,0.1s-0.7,0.1-1,0.1c-0.2,0-0.4-0.1-0.5-0.2c-0.1-0.1-0.1-0.3-0.1-0.6v-6.2
		c0-0.3,0.1-0.4,0.2-0.6c0.1-0.1,0.3-0.2,0.5-0.2h6.7c0.1,0,0.1,0,0.2,0.1c0.1,0,0.1,0.1,0.1,0.2s0.1,0.2,0.1,0.3c0,0.1,0,0.2,0,0.4
		c0,0.3,0,0.5-0.1,0.7c-0.1,0.2-0.2,0.2-0.3,0.2h-5.4v4.2c0.3,0,0.5-0.1,0.8-0.1c0.3,0,0.6,0,1,0c0.8,0,1.6,0.1,2.2,0.3
		c0.6,0.2,1.1,0.5,1.6,0.9s0.7,0.8,0.9,1.4S138,107.9,138,108.6z"/>
</g>
</svg>
