<?xml version="1.0" encoding="utf-8"?>
<!-- Generator: Adobe Illustrator 15.1.0, SVG Export Plug-In . SVG Version: 6.00 Build 0)  -->
<!DOCTYPE svg PUBLIC "-//W3C//DTD SVG 1.1//EN" "http://www.w3.org/Graphics/SVG/1.1/DTD/svg11.dtd">
<svg version="1.1" id="Layer_1" xmlns="http://www.w3.org/2000/svg" xmlns:xlink="http://www.w3.org/1999/xlink" x="0px" y="0px"
	 width="198.667px" height="198.667px" viewBox="0 0 198.667 198.667" enable-background="new 0 0 198.667 198.667"
	 xml:space="preserve">
<g id="Layer_5">
</g>
<g id="Solutions" display="none">
	<g id="Improve_Outcomes" display="inline">
		<ellipse fill="#52C0B2" cx="99.882" cy="101.187" rx="98.849" ry="94.354"/>
		<g>
			<g>
				<path fill="#0A3E64" d="M66.209,133.934h9.281c1.365,0,2.479-0.896,2.479-1.994v-11.881c0-1.099-1.114-1.992-2.479-1.992h-9.281
					c-1.364,0-2.479,0.896-2.479,1.992v11.881C63.73,133.035,64.845,133.934,66.209,133.934z"/>
				<path fill="#0A3E64" d="M87.569,133.934h9.281c1.364,0,2.479-0.896,2.479-1.994v-27.75c0-1.092-1.115-1.989-2.479-1.989h-9.281
					c-1.364,0-2.48,0.897-2.48,1.989v27.75C85.089,133.035,86.205,133.934,87.569,133.934z"/>
				<path fill="#0A3E64" d="M108.928,133.934h9.282c1.359,0,2.479-0.896,2.479-1.994V88.325c0-1.093-1.119-1.99-2.479-1.99h-9.282
					c-1.361,0-2.479,0.897-2.479,1.99v43.614C106.449,133.035,107.564,133.934,108.928,133.934z"/>
				<path fill="#0A3E64" d="M130.287,133.934h9.281c1.363,0,2.479-0.896,2.479-1.994V72.46c0-1.094-1.112-1.99-2.479-1.99h-9.281
					c-1.363,0-2.479,0.896-2.479,1.99v59.479C127.809,133.035,128.923,133.934,130.287,133.934z"/>
			</g>
			<path fill="#FFFFFF" d="M160.055,52.619H45.723c-4.646,0-8.412,4.467-8.412,9.974v78.79c0,5.511,3.766,9.974,8.412,9.974h114.332
				c4.646,0,8.411-4.463,8.411-9.974v-78.79C168.466,57.086,164.697,52.619,160.055,52.619z M45.563,111.732
				c0,1.143-0.929,2.072-2.073,2.072c-1.146,0-2.073-0.932-2.073-2.072v-19.49c0-1.144,0.927-2.071,2.073-2.071
				c1.144,0,2.073,0.927,2.073,2.071V111.732L45.563,111.732z M155.818,143.921H49.961V60.053h105.857V143.921z"/>
		</g>
		<ellipse fill="#53C1B2" cx="162.292" cy="101.578" rx="3.535" ry="3.293"/>
	</g>
	<g id="Be_Ready_from_the_Start" display="inline">
		<ellipse fill="#52C0B2" cx="99.886" cy="100.651" rx="98.638" ry="94.152"/>
		<path fill="#FFFFFF" d="M52.275,55.654h8.78v-7.907c0-2.563,2.077-4.639,4.64-4.639c2.561,0,4.638,2.076,4.638,4.639v19.945
			c0,2.562-2.078,4.638-4.638,4.638c-2.563,0-4.64-2.076-4.64-4.638v-3.69h-8.316v17.165h86.938V64.002h-9.09l0.045-8.348h9.511
			c4.347,0,7.888,3.54,7.888,7.884v39.571c-2.642-1.309-5.445-2.254-8.354-2.813V86.733H52.739v49.837h47.981
			c0.342,2.885,1.063,5.688,2.135,8.352h-50.58c-2.172,0-4.144-0.885-5.571-2.313c-1.429-1.428-2.313-3.4-2.313-5.57v-73.5
			C44.391,59.193,47.93,55.654,52.275,55.654L52.275,55.654z M97.711,67.645c0,2.561-2.076,4.638-4.638,4.638
			c-2.562,0-4.638-2.077-4.638-4.638v-3.643H75.854l0.045-8.348h12.537v-7.955c0-2.562,2.077-4.639,4.638-4.639
			c2.561,0,4.638,2.078,4.638,4.639L97.711,67.645L97.711,67.645z M125.066,67.692c0,2.562-2.074,4.638-4.641,4.638
			c-2.562,0-4.637-2.076-4.637-4.638v-3.69h-12.563l0.049-8.348h12.516v-7.907c0-2.563,2.074-4.639,4.635-4.639
			c2.563,0,4.642,2.076,4.642,4.639L125.066,67.692L125.066,67.692z"/>
		<g>
			<path fill="#0A3E64" d="M72.906,107.298c0,0.968-0.783,1.748-1.75,1.748H60.058c-0.965,0-1.749-0.78-1.749-1.748v-9.545
				c0-0.965,0.783-1.748,1.749-1.748h11.098c0.966,0,1.75,0.783,1.75,1.748V107.298z"/>
			<path fill="#0A3E64" d="M72.907,126.701c0,0.963-0.784,1.746-1.75,1.746H60.059c-0.967,0-1.75-0.783-1.75-1.746v-9.551
				c0-0.963,0.782-1.746,1.75-1.746h11.097c0.966,0,1.75,0.783,1.75,1.746L72.907,126.701L72.907,126.701L72.907,126.701z"/>
			<path fill="#0A3E64" d="M93.307,107.298c0,0.968-0.783,1.748-1.748,1.748h-11.1c-0.965,0-1.749-0.78-1.749-1.748v-9.545
				c0-0.965,0.784-1.748,1.749-1.748h11.1c0.965,0,1.748,0.783,1.748,1.748V107.298z"/>
			<path fill="#0A3E64" d="M93.307,126.701c0,0.963-0.783,1.746-1.748,1.746H80.461c-0.969,0-1.751-0.783-1.751-1.746v-9.551
				c0-0.963,0.782-1.746,1.751-1.746h11.098c0.965,0,1.748,0.783,1.748,1.746V126.701z"/>
			<path fill="#0A3E64" d="M113.707,107.298c0,0.968-0.781,1.748-1.746,1.748h-11.102c-0.964,0-1.747-0.78-1.747-1.748v-9.545
				c0-0.965,0.782-1.748,1.747-1.748h11.102c0.965,0,1.746,0.783,1.746,1.748V107.298z"/>
			<path fill="#0A3E64" d="M134.109,107.298c0,0.968-0.783,1.748-1.748,1.748h-11.102c-0.965,0-1.75-0.78-1.75-1.748v-9.545
				c0-0.965,0.785-1.748,1.75-1.748h11.102c0.965,0,1.748,0.783,1.748,1.748V107.298z"/>
			<path fill="#0A3E64" d="M113.71,126.701c0,0.965-0.785,1.746-1.748,1.746h-11.104c-0.961,0-1.747-0.781-1.747-1.746v-9.547
				c0-0.967,0.785-1.748,1.747-1.748h11.104c0.963,0,1.748,0.781,1.748,1.748V126.701z"/>
		</g>
		<g>
			<circle fill="#53C1B2" cx="131.623" cy="131.491" r="22.519"/>
			<g>
				<g>
					<path fill="#FFFFFF" d="M131.712,104.443c-14.934,0-27.041,12.111-27.041,27.049c0,14.937,12.107,27.045,27.041,27.045
						c14.938,0,27.05-12.108,27.05-27.045C158.762,116.557,146.65,104.443,131.712,104.443z M131.712,152.66
						c-11.688,0-21.162-9.479-21.162-21.168c0-11.689,9.476-21.166,21.162-21.166c11.695,0,21.172,9.478,21.172,21.166
						C152.884,143.182,143.408,152.66,131.712,152.66z"/>
				</g>
			</g>
		</g>
		
			<line fill="none" stroke="#0A3E64" stroke-width="5.1281" stroke-linecap="round" stroke-miterlimit="10" x1="130.951" y1="118.382" x2="130.951" y2="133.271"/>
		
			<line fill="none" stroke="#0A3E64" stroke-width="5.1281" stroke-linecap="round" stroke-miterlimit="10" x1="130.951" y1="133.271" x2="137.156" y2="139.479"/>
	</g>
	<g id="Drive_Financial_Performance" display="inline">
		<ellipse fill="#52C0B2" cx="99.955" cy="100.887" rx="98.535" ry="94.056"/>
		<g>
			<g>
				<g>
					<g>
						<path fill="#FFFFFF" d="M147.473,97.305h-21.104c-1.494,0-2.707-1.213-2.707-2.706c0-1.496,1.213-2.708,2.707-2.708h21.104
							c1.493,0,2.707,1.212,2.707,2.708C150.18,96.092,148.966,97.305,147.473,97.305z"/>
					</g>
					<g>
						<path fill="#FFFFFF" d="M152.191,78.631h-30.547l4.998,10.71h20.553L152.191,78.631L152.191,78.631z"/>
					</g>
				</g>
				<g>
					<g>
						<path fill="#FFFFFF" d="M73.543,97.305H52.439c-1.497,0-2.708-1.213-2.708-2.706c0-1.496,1.211-2.708,2.708-2.708h21.104
							c1.492,0,2.708,1.212,2.708,2.708C76.25,96.092,75.035,97.305,73.543,97.305z"/>
					</g>
					<g>
						<path fill="#FFFFFF" d="M78.265,78.631H47.718l4.998,10.71h20.547L78.265,78.631L78.265,78.631z"/>
					</g>
				</g>
				<path fill="#FFFFFF" d="M81.674,120.861l-9.521-21.402H53.825l-14.059,31.609c-1.435,7.924,3.928,14.346,11.978,14.346H70.75
					L81.674,120.861z"/>
				<path fill="#FFFFFF" d="M160.143,131.068L146.08,99.459h-18.322l-9.209,20.699l11.236,25.256h18.383
					C156.218,145.414,161.58,138.992,160.143,131.068z"/>
				<g>
					<g>
						<path fill="#FFFFFF" d="M112.771,110.375H87.763c-1.771,0-3.209-1.438-3.209-3.211c0-1.771,1.438-3.205,3.209-3.205h25.009
							c1.771,0,3.207,1.435,3.207,3.205C115.979,108.938,114.544,110.375,112.771,110.375z"/>
					</g>
					<g>
						<path fill="#FFFFFF" d="M118.363,88.244H82.171l5.922,12.693h24.351L118.363,88.244L118.363,88.244z"/>
					</g>
					<path fill="#FFFFFF" d="M127.787,150.384l-16.66-37.459H89.409l-16.662,37.459c-1.702,9.39,4.654,16.998,14.193,16.998h26.651
						C123.134,167.382,129.488,159.771,127.787,150.384z"/>
				</g>
			</g>
			<polygon fill="#0A3E64" points="59.021,71.207 68.083,71.207 68.083,57.024 74.531,57.024 63.523,44.604 52.516,57.024 
				59.021,57.024 			"/>
			<polygon fill="#0A3E64" points="95.47,80.411 104.533,80.411 104.533,40.919 110.979,40.919 99.974,28.497 88.965,40.919 
				95.47,40.919 			"/>
			<polygon fill="#0A3E64" points="131.919,71.717 140.98,71.717 140.98,57.024 147.428,57.024 136.421,44.604 125.414,57.024 
				131.919,57.024 			"/>
		</g>
		<g>
			<path fill="#53C1B2" d="M100.289,125.684c0.803,0,1.437,0.635,1.437,1.438v0.732c1.976,0.232,3.646,0.869,5.185,1.838
				c0.53,0.301,1.002,0.805,1.002,1.604c0,1.037-0.834,1.84-1.873,1.84c-0.334,0-0.666-0.102-1.002-0.301
				c-1.172-0.703-2.308-1.203-3.443-1.471v6.416c5.082,1.271,7.256,3.309,7.256,6.887c0,3.676-2.875,6.115-7.119,6.518v2.006
				c0,0.803-0.637,1.438-1.438,1.438c-0.801,0-1.471-0.635-1.471-1.438v-2.07c-2.507-0.271-4.813-1.17-6.854-2.606
				c-0.566-0.365-0.903-0.902-0.903-1.604c0-1.035,0.804-1.839,1.84-1.839c0.403,0,0.802,0.136,1.104,0.367
				c1.566,1.138,3.108,1.901,4.945,2.24v-6.587c-4.881-1.271-7.153-3.104-7.153-6.885c0-3.576,2.842-6.051,7.021-6.387v-0.697
				C98.819,126.318,99.487,125.684,100.289,125.684z M98.952,137.08v-5.916c-2.14,0.201-3.209,1.336-3.209,2.808
				C95.743,135.376,96.38,136.246,98.952,137.08z M101.591,141.725v6.084c2.142-0.231,3.31-1.306,3.31-2.908
				C104.9,143.432,104.166,142.527,101.591,141.725z"/>
		</g>
	</g>
	<g id="Focus_on_the_Patient" display="inline">
		<path fill="#52C0B2" d="M198.604,100.512c0,51.821-44.015,93.831-98.297,93.831c-54.289,0-98.298-42.01-98.298-93.831
			s44.01-93.83,98.298-93.83C154.591,6.682,198.604,48.691,198.604,100.512z"/>
		<g>
			<path fill="#0A3E64" d="M89.553,76.662H83.5l0.63,4.081c0.086,0.571,0.016,1.153-0.207,1.685l-3.796,9.068L83.3,91.52
				L89.553,76.662z"/>
			<path fill="#0A3E64" d="M109.591,88.219c-1.696-6.781-7.821-11.557-14.812-11.557h-0.524l7.969,23.035
				c0.532,1.537,0.287,3.238-0.656,4.566c-0.944,1.322-2.473,2.111-4.101,2.111h-2.267H77.05h-2.281
				c-1.865-0.01-3.65-0.818-4.962-2.146c-1.31-1.321-2.038-3.117-2.024-4.982l0.005-0.837c0.027-3.641,2.827-6.605,6.377-6.923
				l6.149-14.828h-2.322c-6.988,0-13.112,4.775-14.811,11.557l-3.128,12.459c-1.474,5.871,2.961,20.49,9.013,20.49h34.639
				c6.053,0,10.484-14.619,9.017-20.49L109.591,88.219z"/>
			<path fill="#0A3E64" d="M74.819,95.429h-0.023c-0.785,0-1.501,0.304-2.043,0.797c-0.603,0.551-0.988,1.34-0.995,2.219
				l-0.007,0.837c-0.004,0.799,0.316,1.586,0.881,2.159c0.603,0.607,1.383,0.961,2.142,0.963h3.945l2.915-6.923l-3.164-0.025
				L74.819,95.429z"/>
		</g>
		<g>
			<path fill="#FFFFFF" d="M54.091,47.061c-17.94,17.943-17.942,47.02,0,64.966c15.226,15.223,38.467,17.52,56.124,6.906
				l34.117,34.121c4.353,4.344,11.404,4.344,15.752,0c4.353-4.354,4.351-11.404,0.002-15.75l-34.121-34.125
				c10.607-17.654,8.313-40.893-6.905-56.118C101.109,29.12,72.033,29.12,54.091,47.061z M111.042,104.014
				c-13.539,13.487-35.399,13.487-48.94,0.004c-13.492-13.542-13.492-35.406,0-48.942c13.54-13.492,35.402-13.492,48.94,0
				C124.537,68.612,124.533,90.475,111.042,104.014z"/>
			
				<line fill="none" stroke="#53C1B2" stroke-width="4.7838" stroke-linecap="round" stroke-miterlimit="10" x1="124.994" y1="120.861" x2="109.869" y2="135.482"/>
			
				<line fill="none" stroke="#53C1B2" stroke-width="4.7838" stroke-linecap="round" stroke-miterlimit="10" x1="130.729" y1="126.66" x2="115.604" y2="141.287"/>
			
				<line fill="none" stroke="#53C1B2" stroke-width="4.7838" stroke-linecap="round" stroke-miterlimit="10" x1="136.837" y1="132.841" x2="121.716" y2="147.466"/>
		</g>
		<circle fill="#0A3E64" cx="86.387" cy="58.259" r="15.095"/>
	</g>
	<g id="Meet_Regulations" display="inline">
		<ellipse fill="#52C0B2" cx="100.313" cy="100.458" rx="97.946" ry="93.495"/>
		<g>
			<path fill="#FFFFFF" d="M142.486,52.975h-14.313c-1.67-2.261-5.203-4.623-10.453-4.623c-3.663,0-2.836,0-7.196,0
				c-2.155,0-3.246-1.451-3.795-2.917c0.836-0.686,1.571-1.491,2.185-2.391c1.192-1.768,1.896-3.918,1.896-6.208
				c0-1.526-0.313-2.993-0.875-4.322c-0.844-1.996-2.248-3.686-4.018-4.882c-1.771-1.197-3.92-1.899-6.208-1.897
				c-1.526,0-2.994,0.311-4.324,0.873c-1.995,0.844-3.685,2.249-4.88,4.019c-1.196,1.769-1.898,3.919-1.897,6.209
				c-0.001,1.524,0.311,2.991,0.873,4.321c0.712,1.68,1.819,3.141,3.208,4.277c-0.551,1.465-1.64,2.917-3.797,2.917
				c-4.361,0-3.534,0-7.196,0c-5.248,0-8.786,2.362-10.454,4.623H55.158c-1.284,0-2.322,1.039-2.322,2.321V157.44
				c0,1.283,1.039,2.322,2.322,2.322h87.328c1.283,0,2.322-1.039,2.322-2.322V55.296C144.809,54.013,143.77,52.975,142.486,52.975z"
				/>
			<path fill="#53C1B2" d="M94.499,34.639c0.429-1.012,1.148-1.879,2.05-2.489c0.908-0.608,1.977-0.961,3.158-0.962
				c0.789,0,1.523,0.157,2.195,0.443c1.014,0.426,1.881,1.146,2.49,2.049c0.607,0.905,0.961,1.978,0.961,3.157
				c0,0.787-0.158,1.522-0.441,2.197c-0.426,1.011-1.146,1.879-2.049,2.487c-0.68,0.458-1.451,0.771-2.293,0.899H99.88h-0.35h-0.69
				c-0.466-0.072-0.913-0.2-1.333-0.378c-1.009-0.427-1.88-1.146-2.487-2.05c-0.61-0.903-0.962-1.976-0.964-3.155
				C94.059,36.048,94.216,35.312,94.499,34.639z"/>
			<path fill="#53C1B2" d="M137.395,136.621c0,3.396-3.617,10.324-12,4.978c0.709,12.418-14.351,12.104-22.735,12.321H76.932
				c0,0-9.943,0-16.682,0V60.6h10.436v0.625c0,1.28,1.04,2.321,2.323,2.321h53.397c1.279,0,2.32-1.041,2.32-2.321V60.6h8.668
				L137.395,136.621L137.395,136.621z"/>
		</g>
		<g>
			<g>
				<path fill="#0A3E64" stroke="#0A3E64" stroke-width="0.993" d="M73.947,90.967l-4.861-6.447
					c-0.656-0.82-0.492-2.021,0.382-2.676c0.819-0.603,2.022-0.438,2.624,0.382l3.222,4.262l9.854-16.54
					c0.546-0.874,1.749-1.146,2.623-0.601c0.874,0.547,1.147,1.749,0.602,2.623L77.117,90.857c-0.327,0.491-0.93,0.874-1.529,0.874
					c-0.054,0-0.054,0-0.111,0C74.876,91.731,74.331,91.458,73.947,90.967z"/>
			</g>
		</g>
		<path fill="#0A3E64" stroke="#0A3E64" stroke-width="0.9636" d="M129.3,75.859c0,1.057-0.807,1.915-1.801,1.915H95.862
			c-0.997,0-1.805-0.857-1.805-1.915l0,0c0-1.059,0.808-1.916,1.805-1.916H127.5C128.494,73.943,129.3,74.8,129.3,75.859
			L129.3,75.859z"/>
		<path fill="#0A3E64" stroke="#0A3E64" stroke-width="0.9636" d="M129.3,83.819c0,1.057-0.807,1.913-1.801,1.913H95.862
			c-0.996,0-1.805-0.855-1.805-1.913l0,0c0-1.061,0.809-1.917,1.805-1.917H127.5C128.494,81.903,129.3,82.759,129.3,83.819
			L129.3,83.819z"/>
		<g>
			<g>
				<g>
					<path fill="#0A3E64" stroke="#0A3E64" stroke-width="0.993" d="M71.783,116.354l-4.863-6.444
						c-0.656-0.818-0.492-2.021,0.38-2.677c0.82-0.604,2.023-0.438,2.625,0.384l3.221,4.26l9.856-16.539
						c0.546-0.874,1.748-1.146,2.621-0.601c0.874,0.546,1.149,1.749,0.602,2.622L74.95,116.25c-0.326,0.487-0.929,0.875-1.528,0.875
						c-0.054,0-0.054,0-0.111,0C72.712,117.121,72.165,116.848,71.783,116.354z"/>
				</g>
			</g>
			<path fill="#0A3E64" stroke="#0A3E64" stroke-width="0.9636" d="M129.3,100.628c0,1.058-0.807,1.914-1.801,1.914H95.862
				c-0.996,0-1.805-0.856-1.805-1.914l0,0c0-1.06,0.809-1.917,1.805-1.917H127.5C128.494,98.712,129.3,99.569,129.3,100.628
				L129.3,100.628z"/>
			<path fill="#0A3E64" stroke="#0A3E64" stroke-width="0.9636" d="M129.3,108.589c0,1.058-0.807,1.914-1.801,1.914H95.862
				c-0.996,0-1.805-0.856-1.805-1.914l0,0c0-1.061,0.809-1.916,1.805-1.916H127.5C128.494,106.673,129.3,107.529,129.3,108.589
				L129.3,108.589z"/>
		</g>
		<g>
			<g>
				<g>
					<path fill="#0A3E64" stroke="#0A3E64" stroke-width="0.993" d="M71.783,140.477l-4.863-6.449
						c-0.656-0.815-0.492-2.021,0.38-2.674c0.82-0.604,2.023-0.438,2.625,0.379l3.221,4.265l9.856-16.541
						c0.546-0.873,1.748-1.146,2.621-0.603c0.874,0.547,1.149,1.748,0.602,2.625L74.95,140.365c-0.326,0.49-0.929,0.874-1.528,0.874
						c-0.054,0-0.054,0-0.111,0C72.712,141.239,72.165,140.966,71.783,140.477z"/>
				</g>
			</g>
			<path fill="#0A3E64" stroke="#0A3E64" stroke-width="0.9636" d="M129.3,125.93c0,1.057-0.807,1.911-1.801,1.911H95.862
				c-0.996,0-1.805-0.854-1.805-1.911l0,0c0-1.062,0.809-1.918,1.805-1.918H127.5C128.494,124.012,129.3,124.869,129.3,125.93
				L129.3,125.93z"/>
			<path fill="#0A3E64" stroke="#0A3E64" stroke-width="0.9636" d="M129.3,133.889c0,1.057-0.807,1.911-1.801,1.911H95.862
				c-0.996,0-1.805-0.854-1.805-1.911l0,0c0-1.062,0.809-1.916,1.805-1.916H127.5C128.494,131.973,129.3,132.828,129.3,133.889
				L129.3,133.889z"/>
		</g>
	</g>
	<g id="Share_Information" display="inline">
		<path fill="#52C0B2" d="M198.343,99.562c0,51.727-43.932,93.659-98.12,93.659c-54.188,0-98.119-41.933-98.119-93.659
			c0-51.73,43.93-93.662,98.119-93.662C154.412,5.9,198.343,47.832,198.343,99.562z"/>
		<g>
			<path fill="#FFFFFF" stroke="#FFFFFF" stroke-width="3.9917" d="M36.34,98.814c-0.14-9.906,2.075-19.214,6.646-27.921
				c4.568-8.708,11.011-15.82,19.321-21.334l-6.958-11.981l23.756,6.644l-6.302,23.453l-7-12.059
				c-7.214,4.847-12.798,11.098-16.759,18.757c-3.961,7.661-5.871,15.82-5.718,24.476c0.145,8.656,2.433,16.793,6.867,24.41
				c3.42,5.996,7.815,11.023,13.177,15.089c5.367,4.065,11.292,6.971,17.787,8.717l-1.826,6.795
				c-7.349-1.976-14.076-5.274-20.186-9.922c-6.103-4.638-11.117-10.353-15.028-17.133C39.07,118.055,36.477,108.723,36.34,98.814z
				 M122.123,49.538l1.822-6.798c7.268,1.952,13.951,5.249,20.061,9.884c6.104,4.64,11.117,10.355,15.029,17.137
				c5.041,8.751,7.639,18.083,7.777,27.99c0.139,9.907-2.074,19.213-6.646,27.92c-4.572,8.711-11.012,15.822-19.317,21.338
				l6.985,12.117l-23.725-6.766l6.268-23.334l7.037,11.938c7.215-4.854,12.787-11.106,16.726-18.764
				c3.938-7.66,5.836-15.822,5.694-24.493c-0.147-8.667-2.405-16.83-6.785-24.488c-3.435-5.96-7.844-10.964-13.231-15.019
				C134.423,54.146,128.529,51.259,122.123,49.538z"/>
		</g>
		<g>
			<path fill="#0A3E64" d="M85.906,87.965h44.816c2.189,0,3.969-1.775,3.969-3.969c0-2.193-1.775-3.97-3.969-3.97H85.906
				c-2.194,0-3.972,1.776-3.972,3.97C81.934,86.19,83.712,87.965,85.906,87.965z M130.723,94.694H85.906
				c-2.194,0-3.972,1.777-3.972,3.971c0,2.19,1.778,3.969,3.972,3.969h44.816c2.189,0,3.969-1.776,3.969-3.969
				S132.914,94.694,130.723,94.694z M130.723,109.364H85.906c-2.194,0-3.972,1.778-3.972,3.966c0,2.193,1.778,3.976,3.972,3.976
				h44.816c2.189,0,3.969-1.779,3.969-3.976C134.691,111.143,132.914,109.364,130.723,109.364z"/>
			<circle fill="#0A3E64" cx="73.386" cy="83.996" r="3.97"/>
			<circle fill="#0A3E64" cx="73.386" cy="98.507" r="3.97"/>
			<path fill="#0A3E64" d="M77.356,113.33c0,2.193-1.778,3.976-3.972,3.976c-2.191,0-3.968-1.779-3.968-3.976
				c0-2.188,1.776-3.966,3.968-3.966C75.578,109.364,77.356,111.143,77.356,113.33z"/>
		</g>
	</g>
	<g id="Spark_Physician_Adoption" display="inline">
		<ellipse fill="#52C0B2" cx="100.208" cy="100.174" rx="98.326" ry="93.854"/>
		<path fill="#0A3E64" d="M90.872,76.163l-0.26-6.288l-5.479-1.579c-0.669-2.462-1.743-4.75-3.152-6.792l2.339-5.203l-4.631-4.263
			L74.696,54.8c-2.15-1.232-4.518-2.115-7.029-2.577l-2.025-5.331l-6.288,0.26l-1.577,5.479c-2.463,0.669-4.752,1.744-6.792,3.15
			l-5.204-2.335l-4.262,4.629l2.762,4.995c-1.233,2.148-2.116,4.516-2.578,7.023l-5.331,2.03l0.259,6.284l5.482,1.577
			c0.667,2.467,1.744,4.756,3.149,6.794l-2.338,5.206l4.631,4.257l4.992-2.758c2.148,1.231,4.518,2.114,7.027,2.577l2.025,5.333
			l6.289-0.265l1.578-5.478c2.464-0.67,4.751-1.746,6.791-3.15l5.205,2.337l4.26-4.629l-2.76-4.993
			c1.235-2.15,2.118-4.517,2.579-7.031L90.872,76.163z M64.115,86.027c-6.552,0.27-12.106-4.837-12.377-11.393
			c-0.271-6.554,4.84-12.105,11.392-12.375c6.556-0.272,12.106,4.835,12.376,11.392C75.777,80.203,70.67,85.757,64.115,86.027z"/>
		<path fill="#0A3E64" d="M154.583,80.807l-0.203-4.891l-4.262-1.228c-0.52-1.917-1.354-3.697-2.451-5.283l1.82-4.05l-3.603-3.315
			L142,64.188c-1.672-0.961-3.518-1.646-5.471-2.006l-1.576-4.146l-4.891,0.203l-1.229,4.262c-1.916,0.52-3.696,1.355-5.285,2.453
			l-4.047-1.82l-3.315,3.603l2.147,3.885c-0.959,1.669-1.646,3.511-2.006,5.467l-4.146,1.577l0.199,4.889l4.268,1.231
			c0.52,1.916,1.355,3.696,2.445,5.28l-1.814,4.052l3.604,3.317l3.886-2.148c1.672,0.957,3.517,1.645,5.469,2.003l1.574,4.152
			l4.896-0.203l1.226-4.269c1.92-0.518,3.7-1.354,5.286-2.451l4.05,1.821l3.313-3.601l-2.146-3.885
			c0.961-1.672,1.646-3.518,2.006-5.469L154.583,80.807z M133.766,88.484c-5.097,0.21-9.416-3.768-9.632-8.864
			c-0.211-5.097,3.769-9.418,8.869-9.632c5.097-0.21,9.416,3.769,9.627,8.865C142.841,83.951,138.865,88.271,133.766,88.484z"/>
		<path fill="#0A3E64" d="M122.509,46.012l-0.159-3.806l-3.313-0.958c-0.406-1.491-1.057-2.875-1.91-4.112l1.416-3.15l-2.804-2.582
			l-3.026,1.67c-1.301-0.746-2.731-1.281-4.254-1.562l-1.229-3.228l-3.81,0.159l-0.953,3.319c-1.497,0.404-2.879,1.055-4.116,1.907
			l-3.151-1.417l-2.582,2.805l1.672,3.026c-0.747,1.3-1.282,2.736-1.561,4.253l-3.229,1.23l0.155,3.807l3.32,0.956
			c0.408,1.493,1.057,2.88,1.91,4.115l-1.418,3.151l2.805,2.583l3.025-1.671c1.302,0.746,2.735,1.282,4.254,1.561l1.229,3.231
			l3.81-0.158l0.955-3.321c1.492-0.404,2.879-1.059,4.113-1.908l3.152,1.413l2.578-2.803L117.72,51.5
			c0.746-1.302,1.281-2.738,1.563-4.258L122.509,46.012z M106.305,51.991c-3.974,0.163-7.333-2.933-7.499-6.901
			c-0.165-3.97,2.93-7.334,6.9-7.498c3.974-0.165,7.332,2.932,7.498,6.899C113.369,48.461,110.271,51.826,106.305,51.991z"/>
		<g>
			<path fill="#FFFFFF" d="M82.644,157.537c-0.002-3.123,1.215-6.063,3.43-8.279c1.632-1.612,3.646-2.266,5.426-2.834l0.454-0.155
				c1.802-0.569,3.373-1.144,4.362-2.334c0.738-0.875,1.222-2.082,1.31-3.24c-4.052-0.42-7.828-2.383-10.66-5.563
				c-2.82-3.157-4.488-7.264-4.725-11.614c-6.267,1.435-11.954,4.957-16.063,9.955c-4.285,5.215-6.642,11.805-6.642,18.565v8.277
				c0,3.396,2.766,6.164,6.167,6.164h21.095c-0.251-0.211-0.493-0.434-0.726-0.664C83.859,163.604,82.642,160.662,82.644,157.537z
				 M84.992,123.277c0.67,7.84,6.812,13.922,14.142,13.922c7.382,0,13.526-6.125,14.151-14.018
				c-1.104-0.133-2.217-0.201-3.322-0.201H89.072C87.711,122.98,86.343,123.082,84.992,123.277z M116.111,123.628
				c-0.201,4.349-1.846,8.455-4.654,11.607c-2.828,3.18-6.59,5.128-10.645,5.521c-0.094,1.886-0.822,3.765-2.035,5.218
				c-1.644,1.937-3.82,2.646-5.755,3.274c-1.787,0.564-3.475,1.104-4.537,2.181c-1.586,1.588-2.46,3.696-2.461,5.938
				c0,2.248,0.875,4.354,2.459,5.939c1.587,1.586,3.697,2.461,5.942,2.461c2.241,0,4.352-0.875,5.938-2.461
				c1.262-1.262,2.102-2.904,2.36-4.629l0.034-0.227c0.148-1,0.293-1.938,0.597-2.912c0.365-1.189,0.935-2.224,1.733-3.16
				c1.982-2.33,4.873-3.609,8.146-3.609c1.099,0,2.214,0.148,3.313,0.445c0.142,0.033,0.261,0.143,0.31,0.277
				c0.054,0.145,0.033,0.297-0.056,0.418c-0.398,0.571-0.666,1.217-0.778,1.909c-0.021,0.125-0.196,0.306-0.196,0.306
				s-0.162,0.076-0.25,0.076c-0.035,0-0.072-0.005-0.104-0.015c-0.75-0.181-1.5-0.267-2.229-0.267
				c-2.365,0.004-4.354,0.867-5.753,2.506c-0.534,0.63-0.87,1.244-1.122,2.044c-0.234,0.75-0.367,1.635-0.525,2.682
				c-0.361,2.382-1.518,4.646-3.246,6.384c-0.229,0.229-0.717,0.653-0.717,0.653h31.334c3.354,0,6.086-2.729,6.086-6.086v-8.166
				C139.298,138.132,129.578,126.311,116.111,123.628z M122.689,157.98c-2.633,0-4.771-2.143-4.771-4.771s2.142-4.772,4.771-4.772
				c2.629,0,4.771,2.144,4.771,4.772S125.32,157.98,122.689,157.98z M122.986,151.223c-1.045,0-1.896,0.854-1.896,1.896
				c0,1.047,0.853,1.896,1.896,1.896c1.047,0,1.895-0.852,1.895-1.896C124.88,152.076,124.033,151.223,122.986,151.223z"/>
			<circle fill="#FFFFFF" cx="98.529" cy="95.154" r="22.562"/>
		</g>
	</g>
	<g id="Put_Your_Data_to_Work" display="inline">
		<path fill="#52C0B2" d="M197.921,100.783c0,51.732-43.94,93.674-98.137,93.674c-54.197,0-98.136-41.94-98.136-93.674
			c0-51.736,43.938-93.679,98.136-93.679C153.979,7.104,197.921,49.047,197.921,100.783z"/>
		<g>
			<path fill="#FFFFFF" d="M147.416,48.097H56.332c-5.561,0.005-10.065,4.505-10.065,10.069v65.066l8.213-8.539V73.73h94.788v56.842
				c0,1.023-0.83,1.85-1.853,1.854H81.224l-8.07,8.214h74.262c5.563-0.007,10.063-4.507,10.063-10.065V58.166
				C157.479,52.602,152.979,48.102,147.416,48.097z M149.268,65.517H54.479v-7.352c0.002-1.024,0.832-1.857,1.852-1.857h91.084
				c1.021,0,1.853,0.833,1.853,1.857V65.517L149.268,65.517z M117.477,92.271h22.511c1.842,0,3.325-1.486,3.325-3.315
				c0-1.833-1.483-3.323-3.325-3.323h-22.511c-1.83,0-3.319,1.489-3.319,3.323C114.154,90.785,115.646,92.271,117.477,92.271z
				 M117.477,105.557h22.511c1.842,0,3.325-1.486,3.325-3.315c0-1.834-1.483-3.323-3.325-3.323h-22.511
				c-1.83,0-3.319,1.489-3.319,3.323C114.154,104.07,115.646,105.557,117.477,105.557z M117.477,118.839h22.511
				c1.842,0,3.325-1.481,3.325-3.319c0-1.836-1.483-3.315-3.325-3.315h-22.511c-1.83,0-3.319,1.479-3.319,3.315
				C114.154,117.355,115.646,118.839,117.477,118.839z"/>
			<g>
				<path fill="#0A3E64" d="M73.466,131.802l3.7-3.909c2.375-2.312,5.715-3.274,9.833-3.543c0.252-0.017,1.105-0.146,1.105-0.146
					c2.913-0.354,5.772-1.313,8.36-3.041c1.517-1.031,2.904-2.281,4.127-3.678c3.697-4.244,5.968-9.926,6.099-15.615
					c0.011-0.6-0.308-1.146-0.832-1.438c-0.514-0.283-1.147-0.256-1.649,0.078l-13.597,9.136c0,0-0.038,0.037-0.29,0.136
					c-0.781,0.256-2.554,0.858-5.349-1.507c-0.837-0.731-1.768-1.762-2.732-3.188c-3.742-5.802-2.11-7.864-1.426-8.81
					c0.288-0.351,0.449-0.387,0.429-0.405l13.672-9.19c0.495-0.327,0.76-0.909,0.691-1.501c-0.066-0.588-0.451-1.09-1.004-1.303
					C87.522,81.18,79,81.967,72.88,86.057c-1.413,0.946-2.662,2.053-3.738,3.283c-3.38,3.873-4.973,8.94-4.762,14.082
					c0.41,4.6,0.2,8.721-2.196,11.475l-3.502,4.016l-4.2,4.367l-4.107,4.268l-0.764,0.797c-0.007,0.005-0.003,0.005-0.007,0.007
					l-3.271,3.368l-8.13,8.386c-2.712,2.854-3.369,6.916-2.019,10.354c0.511,1.295,1.298,2.488,2.371,3.517
					c3.93,3.733,10.143,3.573,13.873-0.354l5.078-5.729l7.188-7.242l4.078-4.105l4.081-4.104L73.466,131.802z"/>
				<path fill="#0A3E64" d="M46.686,150.646L46.686,150.646c-2.029,0.789-4.32-0.207-5.117-2.24
					c-0.802-2.027,0.197-4.326,2.231-5.123c2.03-0.801,4.319,0.199,5.115,2.234C49.722,147.542,48.718,149.839,46.686,150.646z"/>
			</g>
		</g>
	</g>
	<g id="Stage_6__x26__7" display="inline">
		<ellipse fill="#52C0B2" cx="100.609" cy="99.703" rx="98.021" ry="93.563"/>
		<path fill="#FFFFFF" d="M41.93,113.693l18.992,1.635c2.479,0.211,4.678-1.635,4.892-4.117l0.89-10.369
			c0.214-2.48-1.636-4.677-4.118-4.895l-18.989-1.631c-2.481-0.212-4.682,1.637-4.894,4.119l-0.892,10.367
			C37.597,111.285,39.448,113.482,41.93,113.693L41.93,113.693z M62.333,139.828c10.015-11.649,11.524-12.166,15.33-28.791
			c4.217,1.35,8.446,2.627,12.659,4.002c0.448,0.146,0.905,0.297,1.363,0.455c-6.243,18.67-7.401,19.273-19.971,32.623
			C66.023,154.033,56.902,146.152,62.333,139.828L62.333,139.828z M96.268,62.879c0.981,0.381,3.439,1.154,4.925,2.58
			c14.463,13.854,11.355,13.121,27.121,12.597c6-0.202,5.885,9.378,0.783,9.842c-16.141,1.464-17.162,2.699-28.692-7.042
			l-2.548,14.061c-0.197,1.085,0.307,2.133,1.276,2.659c16.465,7.248,19.792,7.248,27.113,30.253
			c2.709,7.146-8.022,11.801-11.33,5.159c-11.461-22.462-13.258-19.015-40.587-28.343c-3.432-1.807-4.685-4.833-4.654-8.583
			l4.434-24.22c-10.593,3.316-9.451,3.086-11.804,16.505c-0.907,5.181-10.426,4.487-9.81-1.771
			c1.961-19.901,5.016-21.054,24.144-28.09c2.612-0.959,8.94,0.771,10.359,1.302l5.795,10.163L96.268,62.879L96.268,62.879z
			 M105.191,44.738c0,6.46-5.238,11.697-11.698,11.697c-6.461,0-11.699-5.237-11.699-11.697c0-6.46,5.237-11.698,11.699-11.698
			C99.955,33.04,105.191,38.277,105.191,44.738z"/>
		<path fill="#0A3E64" d="M85.809,154.541h21.065v-9.045c0-2.213,1.814-4.02,4.045-4.02H132v-9.047c0-2.213,1.814-4.021,4.045-4.021
			h30.086l0.021,5.008c0.004,2.239-1.793,4.037-4.047,4.037h-21.063v9.043c0,2.217-1.814,4.021-4.045,4.021h-21.082v9.043
			c0,2.217-1.816,4.021-4.043,4.021h-30.11v-5.025C81.765,156.348,83.583,154.541,85.809,154.541L85.809,154.541z"/>
	</g>
</g>
<g id="Flexible_Work_Hours" display="none">
	<ellipse display="inline" fill="#52C0B2" cx="100.439" cy="100.89" rx="98.439" ry="93.965"/>
	<g display="inline">
		<path fill="#0A3E64" d="M71.601,156.625c5.182,2.611,10.674,4.551,16.316,5.763l2.66-13.57c-4.448-0.955-8.779-2.479-12.866-4.547
			L71.601,156.625z"/>
		<path fill="#0A3E64" d="M57.376,126.369L45.79,133.89c3.228,4.803,7.076,9.188,11.441,13.021l9.15-10.3
			C62.946,133.591,59.918,130.148,57.376,126.369z"/>
		<path fill="#0A3E64" d="M53.689,74.789l-12.581-6.368c-2.52,5.083-4.359,10.483-5.459,16.057l13.734,2.973
			C50.253,83.055,51.704,78.796,53.689,74.789z"/>
		<path fill="#F1F1F2" d="M63.143,61.652c0.353-0.348,0.711-0.687,1.071-1.024c0.357-0.337,0.724-0.67,1.089-0.996
			c0.386-0.344,0.77-0.68,1.168-1.007c0.366-0.306,0.737-0.596,1.107-0.889c0.72-0.566,1.449-1.107,2.202-1.628
			c0.367-0.257,0.725-0.519,1.098-0.764c11.695-7.729,26.267-10.27,40.108-7.11c0.574,0.128,1.145,0.273,1.711,0.428
			c0.356,0.09,0.719,0.179,1.072,0.28c0.969,0.279,1.932,0.588,2.891,0.921c0.176,0.063,0.346,0.132,0.521,0.196
			c0.836,0.301,1.663,0.623,2.482,0.968c0.213,0.088,0.42,0.178,0.629,0.269c0.854,0.372,1.705,0.772,2.545,1.185
			c2.57,1.284,5.07,2.781,7.479,4.518c1.652,1.193,3.201,2.474,4.68,3.809c0.537,0.493,1.066,0.987,1.588,1.497
			c0.349,0.346,0.685,0.697,1.021,1.047c0.355,0.373,0.721,0.759,1.066,1.143c0.348,0.38,0.688,0.768,1.021,1.154
			c0.324,0.382,0.639,0.771,0.953,1.16c0.555,0.693,1.088,1.394,1.604,2.109c0.293,0.393,0.584,0.789,0.867,1.195
			c2.861,4.19,5.07,8.722,6.611,13.439c0.014,0.049,0.025,0.099,0.041,0.143c2.746,8.522,3.275,17.629,1.438,26.395
			c-0.111,0.562-0.252,1.127-0.386,1.683c-0.089,0.354-0.173,0.707-0.265,1.067c-0.264,0.951-0.541,1.906-0.855,2.849
			c-0.059,0.164-0.119,0.319-0.18,0.487c-0.289,0.826-0.598,1.652-0.928,2.466c-0.084,0.203-0.176,0.407-0.264,0.616
			c-0.342,0.834-0.722,1.656-1.115,2.466c-1.238,2.543-2.699,5.01-4.404,7.375c-1.08,1.498-2.242,2.92-3.463,4.276
			c-0.615,0.676-1.25,1.347-1.896,1.988c-0.135,0.129-0.255,0.248-0.389,0.375c-0.695,0.676-1.404,1.33-2.137,1.965
			c-0.033,0.023-0.061,0.053-0.09,0.072c-0.797,0.688-1.625,1.344-2.469,1.979c-0.07,0.06-0.146,0.115-0.224,0.172
			c-0.854,0.634-1.731,1.242-2.623,1.824c-2.955,1.918-6.123,3.527-9.474,4.806l-3.114-13.104L97.33,156.695l28.296,16.926
			l-3.147-13.072c5.946-1.957,11.487-4.723,16.511-8.205c0.067-0.053,0.143-0.1,0.215-0.153c0.512-0.354,1.02-0.717,1.52-1.092
			c0.102-0.074,0.199-0.147,0.301-0.228c0.48-0.367,0.967-0.736,1.439-1.117c0.096-0.073,0.188-0.151,0.279-0.229
			c1.28-1.043,2.526-2.137,3.729-3.277c0.329-0.317,0.668-0.627,0.989-0.957c0.201-0.197,0.398-0.399,0.597-0.6
			c0.383-0.393,0.758-0.779,1.131-1.178c0.156-0.172,0.308-0.334,0.459-0.5c0.187-0.209,0.382-0.41,0.567-0.619l-0.016-0.006
			c1.42-1.604,2.777-3.273,4.043-5.025c2.092-2.896,3.896-5.904,5.426-9.01l0.006,0.008c0.339-0.674,0.654-1.354,0.964-2.035
			c0.159-0.354,0.313-0.711,0.465-1.078c0.224-0.508,0.437-1.021,0.644-1.535c0.133-0.35,0.278-0.698,0.414-1.059
			c0.301-0.783,0.582-1.576,0.846-2.377c0.098-0.266,0.178-0.539,0.262-0.811c0.238-0.74,0.463-1.488,0.678-2.238
			c0.037-0.141,0.076-0.279,0.113-0.422c0.411-1.488,0.768-2.992,1.063-4.514l-0.027-0.004c1.09-5.623,1.43-11.349,1.018-17.02
			l0.043-0.005c-0.383-5.294-1.445-10.556-3.104-15.637c-0.004-0.021-0.01-0.04-0.018-0.062c-0.111-0.329-0.191-0.661-0.309-0.99
			l-0.018-0.063l-0.043,0.01c-1.858-5.421-4.431-10.634-7.681-15.493l0.019-0.011c-1.351-2.011-2.813-3.948-4.369-5.803
			l-0.004-0.002c-1.4-1.671-2.887-3.275-4.443-4.805c-0.035-0.032-0.072-0.069-0.104-0.098c-0.813-0.794-1.646-1.576-2.5-2.331
			l-0.006,0.007c-1.646-1.453-3.379-2.839-5.193-4.152c-2.945-2.132-6.018-3.981-9.162-5.575l0,0
			c-0.688-0.349-1.383-0.684-2.078-1.009c-0.375-0.17-0.748-0.329-1.121-0.498c-0.518-0.229-1.033-0.444-1.557-0.663
			c-0.355-0.147-0.709-0.301-1.063-0.437c-0.805-0.316-1.609-0.614-2.424-0.899c-0.273-0.094-0.549-0.185-0.82-0.277
			c-0.77-0.258-1.535-0.502-2.311-0.728c-0.129-0.039-0.262-0.081-0.389-0.117c-1.506-0.438-3.021-0.827-4.549-1.154l-0.013,0.034
			c-5.688-1.221-11.459-1.688-17.175-1.413l-0.003-0.046c-5.305,0.252-10.563,1.185-15.663,2.705
			c-0.044,0.017-0.095,0.028-0.139,0.04c-0.325,0.099-0.657,0.173-0.98,0.278l0.011,0.04l0,0l-0.011-0.04
			c-0.01,0.004-0.021,0.005-0.036,0.007l-0.162,0.058l0.014,0.038c-5.355,1.716-10.497,4.123-15.271,7.203l-0.016-0.019
			c-3.814,2.463-7.34,5.334-10.537,8.548c-0.018,0.025-0.039,0.042-0.056,0.064c-0.783,0.788-1.551,1.59-2.294,2.419l0.011,0.01
			c-1.433,1.601-2.617,4.06-2.617,4.06l9.963,9.289c0,0,2.524-3.252,3.904-4.737C62.271,62.556,62.702,62.099,63.143,61.652z"/>
		<path fill="#0A3E64" d="M51.275,114.087c-1.486-4.313-2.4-8.77-2.718-13.239l-13.961,0.657c0.402,5.687,1.568,11.336,3.473,16.869
			l0.022,0.063l13.229-4.228L51.275,114.087z"/>
	</g>
	<g display="inline">
		<circle fill="#FFFFFF" stroke="#FFFFFF" stroke-width="2.4047" stroke-miterlimit="10" cx="100.05" cy="105.154" r="5.863"/>
		
			<line fill="none" stroke="#FFFFFF" stroke-width="5.4192" stroke-linecap="round" x1="100.048" y1="105.154" x2="84.313" y2="80.431"/>
		
			<line fill="none" stroke="#FFFFFF" stroke-width="5.4192" stroke-linecap="round" x1="102.096" y1="103.85" x2="114.875" y2="91.203"/>
	</g>
</g>
<g>
	<circle fill="#6AC4A8" cx="99.708" cy="100.037" r="99.708"/>
	<g>
		<path fill="#FFFFFF" d="M72.229,116.9l-35.06,12.74c-3.281,1.207-4.963,4.838-3.747,8.131c1.212,3.298,4.858,4.994,8.146,3.807
			l35.041-12.727c3.283-1.203,4.976-4.85,3.769-8.145C79.167,117.41,75.522,115.689,72.229,116.9z"/>
		<path fill="#FFFFFF" d="M68.936,82.966c-0.145-8.485-12.586-7.549-11.99,0.482c0.591,7.963,2.866,13.148,7.173,18.547
			l-26.972,9.816c-3.29,1.201-4.971,4.834-3.755,8.127c1.216,3.293,4.868,4.993,8.162,3.812l35.073-12.78
			c3.29-1.186,4.979-4.836,3.777-8.139c-0.434-1.166-1.167-2.135-2.085-2.842C73.028,95.334,69.077,91.147,68.936,82.966z"/>
		<path fill="#FFFFFF" d="M72.743,134.371l-15.789,5.656c-3.069,1.091-4.648,4.475-3.538,7.559c1.122,3.069,4.502,4.682,7.561,3.573
			l15.785-5.638c3.065-1.102,4.647-4.482,3.538-7.565C79.195,134.871,75.809,133.272,72.743,134.371z"/>
		<path fill="#FFFFFF" d="M40.917,105.742l8.542-3.037c2.22-0.804,3.255-3.187,3.761-5.533c0.018-0.08,0.294-1.643,0.364-2.29
			c0.612-4.061,0.659-4.372,1.187-11.453c0.592-8.013-10.861-8.705-11.7-0.271c-0.549,5.532,0.996,8.511-3.169,10.287l-3.022,1.165
			c-3.067,1.103-4.661,4.479-3.547,7.549C34.45,105.233,37.84,106.841,40.917,105.742z"/>
		<path fill="#3E4545" stroke="#3E4545" stroke-width="1.7471" stroke-miterlimit="10" d="M75.566,75.019l0.001-4.851
			c0.005-10.312-8.36-18.688-18.686-18.701c-10.317-0.02-18.691,8.312-18.684,18.602l0.005,4.851L75.566,75.019z"/>
		<path fill="#3E4545" stroke="#3E4545" stroke-width="1.7471" stroke-miterlimit="10" d="M64.22,46.605
			c-0.002-4.055-3.287-7.327-7.338-7.327c-4.052-0.01-7.334,3.249-7.334,7.308v1.901l14.669,0.02L64.22,46.605z"/>
	</g>
	<g>
		<path fill="#FFFFFF" stroke="#FFFFFF" stroke-width="1.7471" stroke-miterlimit="10" d="M156.023,116.9l-35.062,12.74
			c-3.281,1.207-4.962,4.838-3.746,8.131c1.214,3.298,4.86,4.994,8.146,3.807l35.04-12.727c3.283-1.203,4.977-4.85,3.771-8.145
			C162.959,117.41,159.318,115.689,156.023,116.9z"/>
		<path fill="#FFFFFF" stroke="#FFFFFF" stroke-width="1.7471" stroke-miterlimit="10" d="M152.73,82.966
			c-0.144-8.485-12.586-7.549-11.989,0.482c0.591,7.963,2.866,13.148,7.174,18.547l-26.973,9.816
			c-3.292,1.201-4.968,4.834-3.758,8.127c1.22,3.293,4.868,4.993,8.163,3.812l35.073-12.78c3.288-1.186,4.979-4.836,3.778-8.139
			c-0.435-1.166-1.168-2.135-2.085-2.842C156.822,95.334,152.871,91.147,152.73,82.966z"/>
		<path fill="#FFFFFF" stroke="#FFFFFF" stroke-width="1.7471" stroke-miterlimit="10" d="M156.537,134.371l-15.788,5.656
			c-3.071,1.091-4.646,4.475-3.535,7.559c1.12,3.069,4.499,4.682,7.558,3.573l15.785-5.638c3.063-1.102,4.646-4.482,3.54-7.565
			C162.99,134.871,159.602,133.272,156.537,134.371z"/>
		<path fill="#FFFFFF" stroke="#FFFFFF" stroke-width="1.7471" stroke-miterlimit="10" d="M124.711,105.742l8.54-3.037
			c2.221-0.804,3.256-3.187,3.762-5.533c0.018-0.08,0.297-1.643,0.365-2.29c0.611-4.061,0.658-4.372,1.188-11.453
			c0.589-8.013-10.863-8.705-11.704-0.271c-0.545,5.532,0.999,8.511-3.167,10.287l-3.022,1.165
			c-3.066,1.103-4.661,4.479-3.549,7.549C118.244,105.233,121.635,106.841,124.711,105.742z"/>
		<path fill="#3E4545" stroke="#3E4545" stroke-width="1.7471" stroke-miterlimit="10" d="M159.361,75.019l0.002-4.851
			c0.002-10.312-8.359-18.688-18.688-18.701c-10.318-0.02-18.688,8.312-18.682,18.602L122,74.92L159.361,75.019z"/>
		<path fill="#3E4545" stroke="#3E4545" stroke-width="1.7471" stroke-miterlimit="10" d="M148.013,46.605
			c-0.003-4.055-3.286-7.327-7.338-7.327c-4.051-0.01-7.332,3.249-7.332,7.308v1.901l14.667,0.02L148.013,46.605z"/>
	</g>
	<path fill="#3E4545" d="M58.124,9.496L56.3,10.333v31.62h1.823V9.496z"/>
	<g>
		<polygon fill="#3E4545" points="141.705,42.622 139.882,42.622 139.882,8.867 141.705,9.663 		"/>
	</g>
</g>
</svg>
